[
    {
        "title": "অত্যাচারী বাদশাহ এর গল্প",
        "details": "অত্যাচারী বাদশাহ এর গল্প এক দেশে এক অত্যাচারী বাদশাহ ছিলেন। বিভিন্ন রকমের অত্যাচার তিনি করতেন। লোকজনের ঘোড়া-গাধা জোর করে কেড়ে নিতেন। বাদশাহ একদিন সৈন্যসামন্ত সঙ্গে নিয়ে শিকার করতে গেলেন। দলবল নিয়ে শিকার করতে আসা রাজাদের একটা অভিজাত্য এবং এটা একটা বড় উৎসব। রাজা একা একা একটা শিকারের পেছনে ধাওয়া করতে করতে অনেকদূর চলে গেলেন। তাঁর অন্য কোনদিকে খেয়াল নেই। তখন সন্ধা। রাজা টের পেলেন বনের মাথায় ঘন আঁধার নামছে। সঙ্গেকোনো অনুচর নেই। সম্পূর্ণ অপরিচিত স্থান। তিনি কাছাকাছি এক গ্রামেগিয়ে আশ্রয় নিলেন। এক ধনবান ব্যক্তির বাড়িতে রাত্রিযাপন করবেন বলে ইচ্ছা প্রকাশ করলেন। কিছুক্ষণ পর তিনি দেখলেন, ধনী ব্যক্তিটি তার গাধাকে বেদম প্রহার করছে। গাধা কাতর হয়ে চিৎকার করছে। লোকটি নির্বিকার। সে গাধার একটা পা ভেঙে দিল। রাজা তাই দেখে লোকটিকে বললেন কী হে, অবলা জীবটাকে এভাবে পিটাচ্ছ কেন? গাধার ঠ্যাং ভেঙে তুমি নিজেরশক্তি পরীক্ষা কর?লোকটি উত্তেজিতভাবে জবাব দিল: আমার কাজ ভালো কি মন্দ, আমিই সেটা খুব ভালোভাবেজানি। গায়েপড়ে তোমার কথা বলার কোন প্রয়োজন নেই। জবাব শুনেবাদশাহখুব দুঃখ পেলেন। এইভাবে এইনিরীহ প্রাণটিাকে মারা কী কারণ থাকতেপারে দয়া করেসেটা আমাকে বুঝিয়ে বলবে কি? আমারমনে হচ্ছে, তুমি যেশুধুনির্বোধতাইনয় বরং আস্ত একটা পাগল। লোকটি একথায় হেসে বলল: হ্যাঁ, আমি পাগলইবটে। তবে সব শুনলে তুমিও বুঝবে, আমি নির্বোধের মতো গাধাটার পা ভেঙে দিইনি। এরমধ্যে একটা উদ্দেশ্য আছে আমার। আমাদের বাদশাহখুব অত্যাচারী। একথা সবাই জানে। আমার সুস্থ সবল গাধাটির খবরপেলেনিশ্চয়ই তিনি জোর করেএটা নিয়েযাবেন। শুনেছি, আমাদের এইএলাকায় বাদশাহ এসেছেন। তাই গাধাটাকে বাদশাহর অত্যাচার থেকে রক্ষা করবার জন্যে খোঁড়া করেদিলাম। বাদশাহগাধাটিকে কেড়েনিয়েযাওয়ার চেয়ে খোঁড়া অবস্থায় এটা আমার কাছেথাকা অনেক ভালো। আমাদের অত্যাচারী বাদশাহকে জানাই শত ধিক! বাদশাহগ্রামবাসী লোকটির মুখে নিন্দা শুনে খুবই দুঃখ পেলেন। কোন জবাব দিলেন না। রাগে, অপমানে, দুঃখে সারারাত দুচোখের পাতা এক করতে পারেননি। ঘুমহীন রাত কাটল। ভোরেরআলো ফুটল পুব আকাশে। মৃদুবাতাসবয়ে যাচ্ছে। পাখির কলকাকলিতে মুখর চারদিক। সৈন্যসামন্ত বাদশাহকে খুজতে খুজতে সাতসকালে হাজির হল সেই গ্রামে। ধনী লোকের বাড়িরসামনেএল তারা। শত শত লোকজনের মুহূর্তে ভিড় হয়ে গেল। সুসজ্জিত ভৃত্যেরা বাদশাহর সেবায় নিয়োজিত হল। সেই বাড়ির সামনে জাঁকজমকপূর্ণ বিশাল দরবারবসে গেল। রাজ্যের প্রধান প্রধান ব্যক্তি রাজার সামনেএসেআসন গ্রহণ করলেন। রাজকীয খানাপিনার আয়োজন করা হলো। কিছুক্ষণের মধ্যেই সেই এলাকার সম্পূর্ণ পরিবেশ পালটে গেল। সৈন্যদল ওঘোড়ার পদভরে থরথর করে কাঁপতে লাগল সেই এলাকা। বাড়িরসেই লোকটি ব্যাপারস্যাপার দেখে একেবারে থ। গতরাতেস্বয়ং বাদশাহ ছিলেন তার অতিথি। অর্থাৎ বিপদ ঘনিয়েএসেছে। বাদশাহ ডেকে পাঠালেন লোকটিকে। ধরে বেঁধে তাকে আনা হল বাদশাহর সামনে। লোকটি বুঝল, তারআত্মরক্ষার আর কোন উপায় নেই। এই মুহূর্তেই তার জীবন শেষ হবে। আর ভয় করা বৃথা। কারণ উদ্যত তরবারির নিচেই মানবের ভাষা অধিকতর শক্তিশালী হয়েথাকে। তাই লোকটি সাহসের সঙ্গে বলল হে মহামান্য বাদশাহ, আমি একাই শুধু আপনার নিন্দা করি নাই। খবর নিয়ে দেখুন, জনসাধারণ সকলেই একই কথা বলে থাকে। আমাকে সহজেই হত্যা করা আপনারপক্ষেসম্ভব। আমার কথায় আপনি মনে আঘাত পেয়েছেন সেজন্য আমি দুঃখিত। কিন্তু আপনার উচিৎ হবে ভালো কাজ করা যেন কেউ আপনার বদনাম করতে না পারে। অন্যায় করে কখনই সুনাম অর্জন করা সম্ভব নয়। আপনার কর্মচারীরা সারাক্ষণ আপনার গুণকীর্তন করে থাকে। এতে রাজার সম্মান বৃদ্ধি পায় না। প্রজারা যদি বাদশাহর সুনাম করে, তাতেই বাদশাহর সম্মান বাড়ে। বাদশাহ এই সাহসী সত্যকথা শুনে দারুন উদ্দীপ্ত হলেন। লোকটিকে মুক্ত করে দিলেন। সকলের উদ্দেশ্যে বললেন: আমি আজথেকে চেষ্টা করব ন্যায়পরায়ন, &zwj;সুশাসক হতে। আমি চাই একজন ভালো বাদশাহ হতে। যেন আমার সুনাম ছড়িয়ে পড়ে দিক দিগন্তরে।"
    },
    {
        "title": "ঘুমন্ত পুরীর গল্প",
        "details": "রাজা ও রাজকন্যা এর গল্প এক দেশে ছিল এক রাজা। তিনি অনেক ক্ষমতাধর হয়েও সোমগিরির রাজা হিসেবে ছিলেন ভীষণ দয়ালু। দেশ ও দেশের মানুষের প্রতি তার ছিল অসীম ভালবাসা। প্রজাদের সুখ-দুঃখ আনন্দ-বেদনা নিয়েই তিনি সারাক্ষণ ভাবতেন। ফলে সেই রাজ্যের মানুষেরা ছিল খুব সুখি। কোনো কিছুর অভাব ছিল না তাদের। তারাও তাদের রাজাকে প্রাণের চেয়ে বেশি ভালোবাসতেন। এত কিছু হলে কী হবে! এত শক্তি যে রাজার, এত সম্পদে পরিপূর্ণ যারভান্ডার, এত বিশাল আরমহৎ যারমন, সেই মনের গভীর কোণে ছিল এক নিদারুণ বেদনা। দারুণ অসুখি ছিলেন সেই রাজা। সব থেকেও তার যেন কিছুই নেই। তিনি যেন ভীষণ একা। সারাদিন আনমনা হয়ে থাকেন। কারণ রাজার একমাত্র সন্তান, রাজ্যের রাজকন্যা খুব অসুস্থ। সে দাঁড়াতেপারে না, বসতে পারে না। কথাও বলতেপারে না। দিন রাত কেবলই তাকে বিছানায় শুয়ে থাকতেহয়। রাজকন্যার বয়স পনের হলেও, তাকে দেখতে এখনও শিশুটির মতোইলাগে। ভীষণ কষ্টতার। সবার মতো সে চলাফেরা করতে পারেনা, মনের কথা বলার কোনো ভাষাও নেই তার। ক্ষুধা পেলেও কাউকে জানাতে পারেনা। জীবিত থেকেও সেযেন মৃত। সবার মাঝে থেকেও সে যেন সবার থেকে দূরে। দিন যায়, মাস যায়। ঘুরতে ঘুরতে কয়েকটা বছরও চলে যায়। রাজ্যেরসব বড় বড় ডাক্তার, কবিরাজ, হেকিম-বৈদ্যদের পালা শেষ। দূর-দূরান্তের রাজ্য থেকেও বড় বড় ডাক্তারদের পক্সিখরাজ ঘোড়ায় করে নিয়েআসা হল। কিন্তুকিছুতেই কিছুহল না। সকলেরই এক কথা। এঅসুখ কিছুতেই সারবার নয়। শেষেরাজা আর কী করেন! মনের দুঃখে যেন সব কিছুই ভুলে গেলেন। ভুলে গেলেন তার প্রাণপ্রিয় দেশের কথা, প্রজাদের কথা, এমনকি ভুলে গেলেন আহার-নিদ্রার কথাও। তারপর একদিন রাতের অন্ধকারেকাউকেকিছুনা বলে বেরিয়ে পড়লেন রাজপ্রাসাদ থেকে। সবাই যখন গভীর ঘুমেঅচেতন, তখন পোশাক পাল্টে চলে গেলেন রাজ্য ছেড়ে। দিন যায়, মাস যায়, কেউ আর রাজার কোনো সন্ধান পায় না। ঘুরতে ঘুরতে বছরখানেক পরে রাজা এসে পড়লেন এক জঙ্গলে। সে কী ভয়ংকর জঙ্গল! বাঘ, ভাল্লুক আর নানা বিষাক্ত সাপে পরিপূর্ণ সেই জঙ্গল। এদিকে রাজার ভীষণ ক্ষুধা পেয়েগেল। খাদ্যের সন্ধানে রাজা ঘুরে বেড়াতে থাকেন এদিকে সেদিকে। কিন্তুবনের ভেতরে এত গাছ, কোনো গাছে কোনো ফল নেই। অনাহারে-তৃষ্ণায় রাজার প্রাণ যায় যায়। শেষেক্লান্ত হয়ে এক গাছের নিচে বসে পড়লেন রাজা। ঠিক সেই সময় গাছের পাশ দিয়ে কলসি কাঁখেযাচ্ছিল এক ছোট্ট মেয়ে। কী সুন্দর মিষ্টি দেখতে! ছোট্টফুটফুটে গোলাকার মুখে দুটি বড় বড় চোখ। আর সেই চোখে যেন রাজ্যের কৌতূহল। রাজা তো ভীষণ অবাক। কী আজব ব্যাপার! এই ভয়ঙ্কর জঙ্গলে এত সুন্দর ছোট্ট মেয়েএল কোথা থেকে? রাজা মেয়েটিকে ডাকলেন। মানুষের কন্ঠ শুনেমেয়েটি তো প্রথমে অবাক। পরে রাজাকে দেখতেপেয়ে এগিয়ে গেল। মেয়েটি এগিয়েযেতেই রাজা বললেন-মা, দারুণ তৃষ্ণা পেয়েছে। একটুজল খাওয়াবে? মেয়েটি জল দিতেই রাজা যেন প্রাণে বাঁচলেন। তারপর বললেন,কে তুমি মা? এই ভয়ঙ্করজঙ্গলেএকা একা কী করছ? এখানে এলে-ই বা কোথা থেকে? মেয়েটি জানাল, এই জঙ্গলের মধ্যেই একটা ছোট্টকুটিরে মেয়েটি তার মায়ের সঙ্গে থাকে। বাবা মারা গিয়েছেন জন্মের আগেই। আগে মা আর মেয়ে দুজনে জঙ্গল থেকেফুল তুলে মালা গেঁথেবিক্রি করত। মা অসুস্থ বলে, এখন তাকে একা-একাই সব কাজ করতে হয়। সারাদিন ফুলবিক্রি করেপানি নিয়েবাড়ি ফিরছিল মেয়েটি। আরতখনই রাজার সঙ্গে দেখা। মেয়েটির কথা শুনে ভীষণ দুঃখ হল রাজার। এত ছোট্ট একটি মেয়ে, অথচ কত কষ্টেরজীবন তার! মেয়েটির মাথায় হাত বুলিয়েদিলেন রাজা। এই অভাবিত স্নেহে মেয়েটি একেবারে বিগলিত হয়ে পড়ল। সে কখনও তার বাবাকে দেখেনি। এই লোকটিকে দেখে তারনিজের বাবার কথা মনে পড়েগেল। বাড়ির পাশে তার বয়সী মেয়েদের সে দেখেছে, তাদের বাবারা তাদের কত আদরকরে। মেলা থেকে কত কী কিনে এনে দেয়। কী সুন্দর বাড়িতে ঢুকেই মা, মা বলে ডাকতেথাকে। কই, তাকে তো কেউএভাবেডাকে না। কতদিন সে লুকিয়ে লুকিয়ে কেঁদেছে। আজ এই অপরিচিত লোকটিকে দেখে তারমনেহল, তার বাবা বুঝি এমনই ছিল। তার বাবা থাকলেতাকে বুঝি এভাবেই মা বলে ডাকত! চোখ দুটো ছলছল করেউঠল মেয়েটির। সে রাজাকে বলল,চলুন আমাদের বাড়িতে। আমার মা আপনাকে দেখেখুব খুশি হবেন। মেয়েটির কথায় রাজা কেমন যেন অভিভূত হয়েগেলেন। মেয়েটিরসঙ্গে তাদের বাড়িতে গিয়েদেখেন, একটি জীর্ণ পর্ণকুটির। ভেতরে একটা পাটি বিছিয়ে শুয়ে আছে এক অসুস্থ নারী। মেয়েটি মায়ের সঙ্গেরাজার পরিচয় করিয়ে দিল। মেয়েটির মায়ের সঙ্গে অনেক কথা হল রাজার। রাজা কিন্তুনিজের পরিচয় দিলেন না। কেউ বুঝতেই পারল না যে, তিনি আসলে একজন পরাক্রমশালী রাজা। কথা প্রসঙ্গে রাজা জানলেন, এই মেয়েটির জন্ম আর তারনিজের মেয়ের জন্ম একই দিনে। ভীষণ কৌতহল হল রাজার। মেয়েটির প্রতি তার আরও তীব্র মমতা তৈরি হল। সে সারাক্ষণ মেয়েটির সঙ্গে সঙ্গে থাকে। তার সঙ্গে গল্প করে। তার জন্য বন থেকে ফুল কুড়িয়ে আনে। শেষে ফুল দিয়েমেয়েটি মালা গাঁথে। এমনি করেই দিন যায়। মেয়েটিকে পেয়ে রাজা যেন সব দুঃখ ভুলেগেলেন। মেয়েটিওযেন ভীষণ খুশি। এই মানুষটিকে সেও এক সময় বাবা বলেডাকতেশুরু করেদিল। এদিকে এক রাক্ষসটের পেয়ে যায় ব্যাপারটি। সে ভাবে, এমন করেতো আর চলতে দেওয়া যায় না। এভাবে চলতে থাকলে তো একদিন সমস্ত সত্যটাই বের হয়েআসবে। যা করার, এক্ষুণি করতে হবে। সবারআগে মেয়েটার ঘাড়ই মটকাতে হবে। যেই ভাবা সেই কাজ। একদিন বন থেকে রাজার ফিরতেদেরি হয়ে যায়। ওদিকে সন্ধ্যাও ঘনিয়ে আসে। বাবা তো ফিরছে না। দুশ্চিন্তায় মেয়েটি ছোটাছুটি করতে থাকে। ঘর থেকে বাইরে বেরিয়ে খুঁজতে থাকেবাবাকে। সেই সুযোগে রাক্ষসটি এসেমেয়েটির উপর ঝাঁপিয়ে পড়ে। মেয়েটি তো বাবা বাবা বলে চিৎকার শুরু করে দেয়। আর ঠিক সেই সময়েই রাজা এসে উপস্থিত। রাক্ষস বধের মন্ত্রও তার জানা। বহুদুষ্টু রাক্ষসকেই এর আগে উচিৎ শিক্ষা দিয়েছেন তিনি। তিনি সরাসরি আক্রমণ করলেন রাক্ষসকে। আর যায় কোথায়, দুজনের মধ্যে শুরুহয়ে গেল তুমুল যুদ্ধ। শেষ পর্যন্ত মন্ত্রের জোরেজয় হল রাজারই। রাজা যখন রাক্ষসকেপ্রাণেবধকরতে গেলেন, তখন রাক্ষস কেঁদে-কেটে কাকুতি-মিনতি করে বলল,হে পরাক্রমশালী বিক্রমপুরের রাজাধিরাজ, দয়া করে আমাকে প্রাণেবধকরবেন না। তারচেয়েবরং আমাকেআজীবন দাস বানিয়ে রাখুন। বিনিময়েআমি আপনাকে রাজাকে এমন এক সত্য বলব, যার কারণেই আপনার এতকষ্ট। কী সত্য?রাজকন্যার অসুখের পেছনে কোনো সত্য আছেনাকি? রাজার বেশ কৌতহল হল। তিনি রাক্ষসের প্রস্তাবেরাজি হলেন। তাকে না মেরে জানতেচাইলেন, সেই সত্যের ইতিহাস। রাক্ষসটি তখন বলতে শুরু করল। এই রাক্ষসের মা তক্ষোকিনী রাক্ষসী। তাকে মন্ত্রবলেবধকরেন রাজা। অপরাধ- রাজ্যের প্রজাদের ক্ষতিসাধন। তখন এই রাক্ষস প্রতিজ্ঞা করে, মায়ের হত্যার প্রতিশোধ নেওয়ার। সবকিছুর বিনিময়ে হলেও রাজার ক্ষতিসাধন সেকরবেই। আর সে জন্যই রাজারস্ত্রী যখন সন্তানসম্ভবা, তখন সেজাদুবলে রাণির গর্ভ থেকে রাজকন্যাকেসরিয়ে এই কুটিরের নারীর গর্ভে স্থাপন করেন। রাজকন্যার জন্ম হয় এই কুটিরে। এই মেয়েটি-ই আসলে রাজার মেয়ে, বিক্রমপুরের রাজকন্যা। ওদিকে রাজার ঘরে জন্ম নেওয়া অসুস্থ শিশুটি আসলে রাজকন্যার অর্ধাংশ। ওদের দুজনকে যদি কোনো পূর্ণিমার রাতে এক বিছানায় শোয়ানো যায়, তবে তারা দুয়ে মিলে সম্পূর্ণ মানুষে পরিণত হবে। রাক্ষসের কথা শুনে রাজা মেয়েটিকে বুকে জড়িয়েনিলেন। মেয়েটিও তার মাকে নিয়ে ফিরেএল রাজপ্রাসাদে। বহুদিন পর রাজাকে পেয়েপ্রজারাও ভীষণ খুশি। সঙ্গে রাজকন্যা পাওয়ার খবরে তাদের তো আনন্দ আর বাঁধ মানলো না। তারপর এক পূর্ণিমা রাতে দুই রাজকন্যাকেএক বিছানায় শোয়ানো হল। পরদিন সকালে দেখা গেল, ঘর থেকে বের হয়েছে এক অনিন্দ্য সুন্দরী রাজকন্যা। দিনদিন সেবিদ্যা-বুদ্ধিতেও তারপারঙ্গমতারপরিচয় দিতেলাগল। রাজকন্যার রূপ-গুণের প্রশংসা ছড়িয়ে পড়ল দেশ দেশান্তরে। বিক্রমপুরে রাজা-রাজকন্যা-প্রজা সবাই মিলে সুখে-শান্তিতেদিন কাটাতে লাগল। আর সেই দুষ্ট রাক্ষস?রাজার দাস হয়ে দিনরাত তাকে করতে হয় শক্ত শক্ত কাজ। এভাবেই সে তার অন্যায়ের প্রায়শ্চিত্ত করতেথাকে।"
    },
    {
        "title": "বানর রাজপুত্র এর গল্প",
        "details": "সওদাগরের আমানত সবুজদিয়া গ্রামে এক সওদাগর বাস করতো। সে বাণিজ্য করতে দূর দেশে যাবে। তার কাছে কিছু সোনার মোহর ছিলো। সেই গ্রামেতার আপন বলতে কেউ নেই। যারা ছিলো তাদের ওপর সওদাগরের কোন আস্থা ছিলো না। মোহরগুলো কোথায় রেখে যাবে এই নিয়ে মহা দুশ্চিন্তায় পড়ে গেল। পরে খুব চিন্তাভাবনা করে বের করলো। পাশের বাড়িতে বুড়িমা আছে। খুবই ভালো মানুষ।ঈমানদার। পাঁচ ওয়াক্ত নামাজ পড়ে। রোজা পালন করে। তার কাছে রাখা যেতে পারে। সে আমানতের কোন দিনও খেয়ানত করবে না। পরদিন সে বুড়িমার কাছেগেল এবং বলল বুড়িমা এই পুঁটলিটা একটু যত্ন করে গুপ্তস্থানে লুকিয়ে রাখবে। আমি দূর দেশে সওদা করতে যাচ্ছি। ফিরতে ছয় মাস সময় লেগে যাবে। ফিরে এসে তোমার কাছ থেকেআমার আমানতের জিনিস আমি ফেরত নিবো। বুড়ি মা বললো : ঠিক আছে বাবা, আমি বেঁচে থাকতে তোমার এই জিনিস কাউকে ধরতে দেবো না। সওদাগর এবার নিশ্চিন্তে বাণিজ্য করতে চলেযায়। সওদাগরযাবার কিছুদিন পরই বুড়িমা অসুস্থ হয়েপড়ে। দিন যায় রাতযায় বুড়িমার অসুখটা বেড়েই চলে। বুড়িমার খুবই কষ্ট। দিন দিন কষ্টআরো বেড়ে যায়। বুড়িমা সওদাগরের এইআমানতের জিনিস নিয়েমহা দুশ্চিন্তায় পড়ে যায়। বুড়িমা বুঝতেপারে যেতার মৃত্যুতার কাছে এসে পড়েছে। আপনজন বলতে বুড়িমার কেউ এই গ্রামেছিলো না। কার কাছে রেখেযাবে এই আমানত। পরে চিন্তাভাবনা করলো, এই গ্রামের মোড়লের তো অনেক ধনসম্পদ আছে। সেএগুলোর প্রতি লোভ করবে না। এখানেতো সামান্য কয়েকটি পিতলের পয়সা মনেহয়। সেদিনই অসুস্থ শরীর নিয়ে মোড়লের কাছে গেলো এবং বললো :বাবা, আমি তো মরে যাবো তুমি আমার একটা কথা রাখবে বাবা।মোড়লবলল : কি কথা বুড়িমা?বুড়িমা বলল : আমার এই পুঁটলিটা তোমার কাছে আমানত হিসেবে রাখতে হবে। এই পুঁটলিটার মালিক পাশেরবাড়ির সওদাগর। সওদাগর এলে তার হাতে তুমি নিজদায়িত্বে তুলে দেবে বাবা। আমার একথাটা তোমার রাখতেহবে। ঠিক আছে বুড়িমা, ঐ সিন্ধুকটায় ভালো করেভরে রাখবো। বুড়িমা সুন্দর করেনিজ হাতেঐ সওদাগরের সিন্ধুকে ওই পুঁটলিটা রেখেদিলো। বুড়িমা জানতো না ঐ পুঁটলিটাতে কী আছে। বুড়িমা মোড়লের কাছ থেকে বিদায় নিয়েচলে আসে। সে দিন রাতেইবুড়িমা মারা গেলো। মোড়লের মাথায় দুষ্টু বুদ্ধি চাপলো। বুড়িমা মারা যাবার পাঁচ দিন পার না হতেই মোড়ল বুড়িমার সেইপুঁটলিটা খুলেফেললো। পুঁটলিটা খুলেইমোড়ল হতভম্ব। খুশিতে রোশনাই তারচেহারা। সে তো ভীষণ অবাক পুঁটলিটার ভেতর দামি দামি সোনার মোহর যা মোড়ল জীবনে কখনও দেখেনি। এবার মোড়লের সেগুলোর প্রতি লোভ হলো। সে মনে মনে হাসতে থাকে। পুঁটলিটার দিকে লোভনীয় দৃষ্টিতেতাকিয়ে বলতে থাকে বুড়ি মরেছে ভালোই হয়েছে। এখন এই মোহর আমার হয়ে গেলো। ছয় মাস পর সওদাগর ফিরেএলো। বুড়িমার খোঁজ করতেই জানতে পারলো বুড়িমা মারা গিয়েছে অনেকদিন আগে। সে বুড়িমার জন্য বড় দুঃখ প্রকাশ করলো। আল্লাহতায়ালা তাকে জান্নাতবাসী করুক বলে দোয়া করলো। কিন্তুবুড়িমা তার পুঁটলিটা কোথায় রেখে গিয়েছে। সে বুড়ির ঘরটায় অনেক তল্লাশি করলো। কোথাও খুঁজে পেলনা তার সেই পুঁটলিটা। সওদাগর এবার চিন্তিত হয়ে পড়লো। চিন্তায় চিন্তায় পাগল হবার পালা। কারণ সেসারাজীবন কষ্ট করেএই সম্পদ অর্জন করেছে। সে মনে মনেগভীর ভাবে চিন্তা করে বুঝতে পারলো। বুড়িমা খুব বুদ্ধিমতী ও সৎ ছিলো। নিশ্চয়ই এই পুঁটলিটা কারো কাছে রেখেগিয়েছে। এবং বলেগিয়েছে আমারআমানত আমারহাতে ফিরিয়েদেয়ার জন্য। যার কাছে রেখে গিয়েছে সে নিশ্চয় ওয়াদার বরখেলাপ করেছে। সে আরো ভালোভাবেখোঁজ খবর নিয়েদেখে বুড়িমা যেদিন মারা যায় সেদিন সকালেবুড়িমা মোড়লের বাসায় গিয়েছিলো। তারহাতেএকটা পুঁটলি ছিলো। কথাটা শোনা মাত্রই সে মোড়লের কাছে ছুটে যায় এবং মোড়লকে সকল ঘটনা খুলে বলে। মোড়ল হাসতে হাসতে সব অস্বীকার করলো। সওদাগর তাকেদুর দুর করে তাড়িয়েদিলো। সওদাগর মনে মনেভাবলো- আমার এই সম্পদ যদি কষ্টের ওহালালের হয়েথাকে তবে আল্লাহর ইচ্ছায় আমি একদিন না একদিন এই আমানত ফিরে পাবোই। মনের দুঃখে সওদাগর প্রায়ই বুড়িমার কবরের কাছে গিয়েকাঁদে। একদিন সওদাগর স্বপ্নে দেখেবুড়িমা তাকেবলছে, সওদাগর তুমি আর কেঁদ না। আমার সাথে বেঈমানি করেছে মোড়ল। আমানতেরজিনিসখেয়ানত করেছে। এই জন্য সেমারাত্মক শাস্তি ভোগ করবে। তোমার জিনিস যদি হালালের সৎ উপার্জন হয়ে থাকে তবেসেটা অবশ্যই ফেরত পাবে। সওদাগর এবার যেন কিছুটা সান্ত্বনা খুঁজে পেলো। দেখতে দেখতে অনেক দিন পার হয়েযায়। একদিন শুনতে পেলো মোড়ল এক কঠিন ভয়াবহরোগেআক্রান্তহয়েছে। কত দেশের কত কবিরাজ এলো ডাক্তার এলো। কেউই কোন রোগ ধরতে পারলো না। মোড়লের ধন সম্পদ আস্তে আস্তেকমতেকমতেভীষণ খারাপ অবস্থা হতে থাকে। শেষমেশ সেই পুঁটলিটার ওপর নজর পড়লো। সেদিন রাতে মোড়ল যেইওটাকে বের করবে ঠিক সেই মুহূর্তেডাকাত পড়লো মোড়লেরবাড়িতে। ডাকাতরা তারসব ধনসম্পদের দলিল বের করেটিপসই নিলো মোড়লের। সাথে নিলো সেই পুঁটলিটা। ঠিক সেদিনই সওদাগর আবার বুড়িমার কবরের কাছেগিয়ে কাঁদতে থাকে। আর বলতেথাকে আমার মেয়ের বিয়ের জন্য পুঁটলিটা রেখেছিলাম আমার মেয়ে বড় হয়েছে তার বিয়ে হচ্ছে না টাকার জন্য। গ্রামের মোড়ল আমার এই আমানতের জিনিসখেয়ানত করেছে আমি আল্লাহর কাছে অভিশাপ দিচ্ছি যে আমার এই পুঁটলিটা আটকিয়ে রেখেছেতারযেন ভয়াবহকঠিক অসুখ হয়। পৃথিবীর কোন ডাক্তার কবিরাজতাকে ভালো করতে পারবে না। বুড়িমার কবরের পাশে ছিলো একটা বড় বটগাছ। সেই বটগাছের নিচে বসে ডাকাতি করা লুটের জিনিস ভাগযোগ করছিলো ডাকাতরা। ডাকাতদের সর্দার হঠাৎ সেই সওদাগরের এই করুণ আর্তনাদ শুনেফেলে। সেমনে মনে চিন্তা করলো তাইতো এই পুঁটলিটা ঐ সওদাগরের। এ পুঁটলিটা চুরি করার জন্য মোড়ল আজ কঠিন ভয়াবহঅসুখে ভুগছে। তার ধনসম্পদ সব গোল্লায় গেছে। আমরা তার পুঁটলিটা ফেরত দিয়ে দেই, নইলে আমাদের ওপরও তার এই অভিশাপ লাগবে। সাথে সাথেডাকাতদের সর্দার ডাকাতদের সব ঘটনা খুলেবলে। মোড়লের এই করুণ পরিণতির কথা সবাই বুঝতেপারে। ডাকাতদের সর্দার ঐ পুঁটলিটা সওদাগরের কাছেনিয়ে যায় এবং বলে ভাই সওদাগর আমরা বুঝে গেছি, মানুষেরসৎ হালালের পয়সা কখনো হজম করা যায় না। এই নাও তোমার সোনার মোহরেরপুঁটলিটা। তুমি তোমার মেয়েরবিয়ে দাও ধুমধাম করে। আর আমরা সিদ্ধান্ত নিয়েছি আমরা আর কখনো ডাকাতি করবো না। সব ডাকাতকে বিয়ের দাওয়াত দিলো সওদাগর। সওদাগরের মেয়ের বিয়েতে আসার নিমন্ত্রণ পেয়ে ডাকাতরা মহা খুশি হলো। সওদাগর ধুমধামকরে মেয়ের বিয়ে দিলো। সওদাগরের খুশির সীমা রইলো না।"
    },
    {
        "title": "এক রাজা ও টুনটুনি পাখি",
        "details": "h3{color:red;}নীল পরীর গল্প নীল অপরাজিতা ফুল থেকে একটি পরী বেরিয়ে এলো। ফুলুফুলু রাজ্যের সবাই তো অবাক! ভাবছ ফুলুফুলু রাজ্যটা আবার কিরকম? বলছি শোন ফুলুফুলু রাজ্যে শুধু ফুলেরা বাস করে। তাদের প্রতিবেশী রাজ্যে হলো পুখুপুখু। এই রাজ্যে শুধু পাখিরা বাস করে। এখন বলছি সেই পরীর কথা। পরীটির চোখের রঙ নীল। পুরো শরীরে রয়েছে তার নীল রঙের আভা। পুখুপুখু রাজ্যেও এই পরীর কথা পৌঁছে গেল। বুলবুলি পাখি পরীর সঙ্গে দেখা করতে এলো। কিন্তু পরী কারো সঙ্গে কোনো কথা বলল না। এভাবে এক সপ্তাহ কেটে গেল। একদিন হঠাৎ পরী গান গাইল। শিউলি ফুলপরীর কাছে এসে বলল, বাহ! তুমি তো অনেক ভালো গান গাও। কি নাম গো তোমার?আমার নাম নীলপরী। তুমি ফুলুফুলু রাজ্যে কেন এসেছ?আমি ফুল হতে এসেছি।মানে?আমার খুব ইচ্ছা আমি ফুল হব। তারপর সবাই আমাকে ডাকবে নীল ফুলপরী। তুমি ফুল কেন হতে চাও?কারণ ফুলেরা অনেক নিষ্পাপ হয়। তারা কখনো কারো মনে কষ্ট দেয় না। ফুলেরা সবাইকে ভালোবাসতে পারে। ধনী, গরিব, ছোট, বড় সব মানুষকে তারা আদর ও সম্মান করে। আর জানো পৃথিবীতে যে কোনো উৎসবে সবাই ফুলকে অলঙ্কার করে সাজে। আবার ভালোবাসার সম্পর্কও বিনিময় করে ফুল দিয়ে। এসব কথা শুনে শিউলি ফুল তো অনেক খুশি। মনের আনন্দে সে বলল- দারুণ খবর শুনলাম। আচ্ছা নীলপরী তুমি কোথায় বাস কর?আমি পৃথিবী গ্রহে বাস করি। আর যে দেশে থাকি সেই দেশের নাম বাংলাদেশ। আচ্ছা তোমাদের দেশে কী কী উৎসব হয়?ঈদ, পূজা, বড়দিন, নববর্ষ পালন। আর জন্মদিনেও ধুমধাম করে পালন করা হয়। সব উৎসবে কি আমাদের দেখতে পাও?অবশ্যই। তোমাদের অলঙ্কার করেই তো সবাই সাজে। আবার উৎসবগুলোয় একে অন্যকে ফুলও উপহার দেয়। অসাধারণ। আমরা অনেক ভাগ্যবান, নীলপরী। হুম। আমিও তাই মনে করি। আচ্ছা তুমি ফুল হয়ে কি করবে?সবার মাঝে ভালোবাসা ছড়িয়ে দেব। যাতে কেউ কারো সঙ্গে হিংসা না করে। ঝগড়া-বিবাদ না করে। সবাই যেন সুখে-শান্তিতে বাস করতে পারে। তাই ফুল হবো। বাহ! দারুণ কথা! শোন তুমি আর তিনদিন আমাদের রাজ্যে থাকলে ফুল হয়ে যাবে।ধন্যবাদ শিউলি ফুল। নীল ফুলপরী অপেক্ষা করতে লাগল। এভাবে তিনদিন কাটল।তারপর এক ভোরে নীলপরী ফুল হলো। তার ডানায় সাদা বেলিফুল ফুটল। মাথার মুকুটে ফুটল লাল গোলাপ। আর পুরো শরীরে ফুটল নীল অপরাজিতা ফুল। এই খবর পুখুপুখু রাজ্যে ছড়িয়ে পড়ল। পুখুপুখু রাজ্য থেকে শালিক, দোয়েল, বুলবুলি সবাই নীলপরীকে দেখতে এলো। বুলবুলি পরীকে জিজ্ঞাসা করল-কি নাম তোমার পরী?আমি নীল ফুলপরী। "
    },
    {
        "title": "নপুংসক বাদশার সন্তানের গল্প",
        "details": "লাল পরীর গল্প পরি রাজ্যে হঠাৎ করে এক আশ্চর্য ঘটনা ঘটে গেল, আর তা হলো একজন গরিব পরির ঘরে জন্ম নিল লাল ফুটফুটে এক পরি। এর আগে কখনও পরিদের রঙ লাল দেখতে না পাওয়ার কারণে পরিরাজ্যের সকল পরিরা সেই ছোট্ট লাল পরিটাকে দেখার জন্য ভিড় করতে থাকলো।লাল পরির মায়ের বয়স ছিল অনেক বেশি। সে বয়সের ভারে তেমন একটা কাজকর্ম করতে পারতো না, তাই তাদের সংসার খুব অভাব অনটনের মধ্যেই চলছিল। কিন লাল পরি জন্ম গ্রহণের পর থেকে যেন এর পরিবর্তন ঘটতে থাকলো। প্রতিদিন পরি রাজ্যের বিভিন্ন পরিরা লাল পরিকে দেখতে এসে উপঢৌকন দিয়ে যেত আর তা দিয়ে তাদের অভাবের সংসার খুব ভালোভাবেই চলতো। এভাবে যেতে যেতে লাল পরিরা একদিন অনেক ধন সম্পদের মালিক হয়ে গেলো, এমনকি তারা হয়ে গেলো পরিরাজ্যের কয়েকজন ধনীর মধ্যে একজন।লালপরির কথা পরিরাজ্যের পরিরা ছাড়াও অন্যান্য রাজ্যের সকলেই জানতো। দৈত্য রাজ্যের কেউ যেন এই কথা জানতে না পারে সে ব্যাপারে সকলকেই নিষেধ করা ছিল। তারপরও কি কোনো কথা গোপন থাকে? লাল পরিরা এতো ধন-সম্পদের মালিক হওয়ায় হিংসুটে এক পরি লালপরির কথা জানিয়ে দিলো দৈত্য রাজ্যের খারাপ দৈত্য হিংসুং- কে।হিংসুং ছিল দৈত্য রাজ্যের একজন পথভ্রষ্ট দৈত্য। সে দৈত্য রাজার ছোট ছেলে। খারাপ কাজকর্মের জন্য রাজা তাকে রাজ্য থেকেই বের করে দিয়েছেন। তাই সে এখন বিভিন্ন রাজ্যে গিয়ে তার অপকর্ম চালায় এবং কেউ তার ক্ষতি করতে পারে না।লালপরি আস্তে আস্তে বড় হতে থাকলো। এলাকায় তার অনেক নাম ডাক। সবাই তাকে আদর করে পরিরানি বলে ডাকে। সে সবার থেকে আলাদা বলেই সবাই তাকে চোখে চোখেই রাখে। অনেক ধন-সম্পদের মালিক হওয়ায় তার দেখাশোনার জন্য কয়েকজন দাসীও নিযুক্ত করা হয়েছে। লালপরির আচার ব্যবহার এতটাই ভালো যে, দাসীরাও তাকে অনেক আদর যত্ন করতো।একদিন হঠাৎ করে একজন দাসী কাজে না আসায় লালপরি খুব চিন্তিত হয়ে গেলো। কারণ ওই দাসীটা অন্যান্য দাসীদের চেয়েও পরিরাণীকে খুব বেশি ভালোবাসতো। সেই দাসীটার কোনো অসুখ হলো কিনা তা জানার জন্য সে কাউকে না জানিয়ে ঐ দাসীর বাড়ির খোঁজ করার জন্য বের হয়ে গেল। কিন পরিরাণী বাড়ি না চেনার কারণে পথ হারিয়ে অন্য দিকে চলে গেল।এসব কিন খারাপ দৈত্য হিংসুং আড়াল থেকে দেখছিল। কারণ সেই ঐ দাসীকে আটকে রেখেছিল জঙ্গলের মধ্যে। তাছাড়া পরিরাণীকে সে বাড়ি থেকে বাইরে আনতে পারছিল না। অবশেষে হিংসুং বুদ্ধি করে পরিরাণীকে বাইরে আনতে পেরে খুব খুশি হলো এবং তাকে বন্দি করে নিয়ে গেলে দূর পাহাড়ের চূড়ায়।লালপরিকে না পেয়ে তার বৃদ্ধ মা প্রায় মরণাপন্ন অবসায় বিছানায় পড়ে আছে। পরিরাণীকে কিভাবে খুঁজে পাওয়া যায় তা নিয়ে পুরো পরিরাজ্যের পরিরা অসির। সবাই যার যার মতো করে খুঁজছে কিন পরিরাণীকে কোথাও পাওয়া যাচ্ছে না। এদিকে হিংসুং লালপরিকে পাহাড়ের চূড়ায় রেখে চলে এসেছে দুষ্টু পরির সাথে যুক্তি করতে। কীভাবে ধন সম্পদ হাতিয়ে নিয়ে যায় সেই যুক্তিতে তারা যখন মগ্ন ঠিক তখনই অন্যান্য পরিরা পরিরাণীকে খুঁজতে খুঁজতে সেখানে পৌঁছে গেল এবং তাদের কথাবার্তা শুনে ফেলল।হিংসুং -এর সাথে কেউ পেরে উঠবে না বলে তারা সবাই মিলে হাজির হলো পরি রাজ্যের রাজার কাছে। রাজাকে সব ঘটনা খুলে বলায়, রাজা সেই হিংসুটে পরিটাকে ধরে নিয়ে আনলেন এবং বললেন- সে যদি না বলে পরি রানি কোথায় আছে তাহলে তাকে শূলে চড়ানো হবে। রাজার এই শাস্তির ঘোষণা শুনে হিংসুটে পরিটা সবকিছু স্বীকার করে রাজার কাছে প্রাণ ভিক্ষা চাইলো। কিন তার কোনো কথা রাজার মন গলাতে পারলো না।পরিরাজ্যের রাজার সাথে দৈত্যরাজ্যের রাজার খুব ভালো সম্পর্ক ছিল তাই পরিরাজ্যের রাজা দৈত্যরাজ্যের রাজাকে বিষয়টা খুলে বললেন এবং তিনি তার ছেলে হিংসুং-কে আটক করে লাল পরিসহ বন্দীকৃত দাসীকেও ফিরিয়ে দিলেন।লাল পরিকে ফিরে পেয়ে তার মাসহ রাজ্যের সকলেই আনন্দে আত্মহারা হয়ে গেলো এবং পরিরাজ্যের রাজা লাল পরির সুরক্ষার জন্য তাকে রাজপ্রাসাদে রাজকন্যার মর্যাদায় থাকার অনুমতি দিলেন।"
    },
    {
        "title": "রাজকন্যা ইন্দুমতি এর গল্প(পার্ট-২)",
        "details": "রাখাল ও পরীর গল্প (১)চারিদিকে পাহাড় ঘেরা উপত্যকার মাঝে ছিল অপূর্ব সুন্দর এক সরোবর। স্বর্গও লজ্জা পায় এমন সুন্দর পরিবেশ সেখানে। সেই সরোবরের তীরে প্রতি বছর গ্রীষ্মকালে বেড়াতে আসে সাত পরী, সাত বোন। তারা ডানাগুলো একটা গাছের তলায় রেখে আনন্দ করে জলে খেলে বেড়ায়। জনশূন্য চারপাশ। ঠিক সাতদিন ধরে আনন্দ করে আবার ডানাগুলো পরে উড়ে যায় নন্দনকাননে, তাদের নিজের দেশে।এদিকে কাছাকাছি যে কিছু গ্রাম আছে সে খবর তারা না রাখলেও পরীদের সব খবর রাখে কিন্তু সেই গ্রামেরই এক অনাথ রাখাল ছেলে। সে গরু চরায়, বাঁশি বাজায় আর দূর থেকে দেখতে থাকে পরীদের কান্ডকারখানা। একসময় তার খুব ভালো লেগে যায় সবচেয়ে ছোট পরীটিকে। কি অপরূপ মিষ্টি চেহারা! ওকে দেখলেই রাখালের বাঁশিতে বেজে ওঠে স্বর্গীয় সব সুর। দূর থেকে পরীরা তা শোনে আর অবাক হয়ে ভাবে এমন সুন্দর সুর কে বাজায়, এ সুর তো নন্দনকাননের পাখিদেরও অজানা! তারা মুগ্ধ হয়ে শোনে, কিন্তু রাখাল থাকে আড়ালে, তাকে কেউ দেখতে পায় না।একবার হলো কি, রাখালের মাথায় একটা দুষ্টবুদ্ধি জাগলো। পরীরা যখন স্নানে ব্যস্ত, সে চুপিচুপি এসে দাঁড়ালো সেই গাছতলাটিতে যেখানে খুলে রাখা আছে পরীদের ডানাগুলো। বেছে বেছে সব চেয়ে ছোট ডানাজোড়া নিয়ে সে লুকিয়ে রেখে দিল একটা বড় গাছের ফোকরে। তারপর ধীরে ধীরে সরে পড়ল সেখান থেকে। এখন সাতদিন পরে পরীদের যাবার সময় হলে দেখা গেল তাদের ছোটবোনের ডানাজোড়া নেই সেখানে, অনেক খোঁজাখুঁজি করেও তারা সেটা পেল না।এদিকে বাবার কড়া হুকুম, একসপ্তাহের বেশি তাদের স্বর্গ ছেড়ে থাকা চলবে না। কি করে, সবচেয়ে যে বড় পরী সে তার ছোট বোনকে বুঝিয়ে বলল, 'উপায় নেইরে বোন, আমাদের যেতেই হবে, আর গেলে পরের বছরের আগে আর আসতে পারব না। তুই বরং এখানে থেকে ডানা জোড়া ভাল করে খুঁজে দেখ, পেলেই দেশে চলে আসিস, কেমন? আমরা বাবাকে বুঝিয়ে বলব তিনি যেন রাগ না করেন'।ছয় পরী ছোট বোনকে একা সরোবরের তীরে ফেলে রেখে তো উড়ে চলে গেল, বেচারী ছোটপরী মনের দু:খে বসে বসে কাঁদতে লাগলো। তাকে ওভাবে কাঁদতে দেখে রাখাল সাহস করে আড়াল থেকে বেরিয়ে এলো। সব শুনে সে তাকে নিজের বাসায় নিয়ে গেল, তারপর অনেকক্ষণ ধরে বাঁশি বাজিয়ে শোনাল। এই রাখালের বাঁশিই যে তাকে দূর থেকে এত আনন্দ দিয়েছে ভেবে পরীর খুব ভালো লাগলো, তাদের বন্ধুত্ব হতে দেরী হলো না।রাখাল আর পরী গ্রামের একপ্রান্তে একটি কুঁড়েঘরে থাকে, একত্রে গরু চরায়। রাখাল বাঁশি বাজায় আর পরী ঘাঘরা উড়িয়ে নাচে, দেখে গ্রামের লোকেরা ঠিক করলো এদের বিয়ে হওয়া উচিত। রাখাল তো রাজি ছিলই, পরীও কি আর করে, রাজি হয়ে গেল। তারপর একদিন বেশ একটা উৎসবের মধ্যে দিয়ে তাদের বিয়ে হয়ে গেল।(২)রাখাল আর পরীর দিনগুলো বেশ সুখেই কাটে। আবার পরীর চোখ মাঝে মাঝে জলে ভরে ওঠে ফেলে আসা দিনগুলোর কথা, তার দিদিদের কথা ভেবে, কি আনন্দই না করত তারা সাতজনে। নন্দনকাননের অপূর্ব শোভা, বাবার স্নেহ, বাবা তাঁর প্রিয় মেয়েকে ছেড়ে আছেন কি করে সে কথা ভেবে অভিমানও হয়। এরকম সময়ে রাখাল তাকে বাঁশিতে মিষ্টি সুর বাজিয়ে শোনায়, পৃথিবীর, মানুষদের সব গল্প বলে, শেষে একসময় তারা সব ভুলে ঘুমিয়ে পড়ে।ঠিক একবছর হবার আগে পরীর কোল আলো করে একটি ছেলে এলো। তাকে পাবার পরে পরী যেন যেটুকু দু:খকষ্ট ছিল তাও ভুলে গেল। দেখতে দেখতে একবছর পার হয়ে গেল। পরী তো ভুলেই গেছিল কিন্তু রাখালের মনে ছিল, তার দিদিদের আসার সময় হয়ে এলো।রাখালের ঠিক চোখে পড়ল পরীর দিদিরা এক এক করে সরোবরের তীরে নামল। কিন্তু তারা জলে না নেমে এদিক ওদিক খুঁজতে লাগলো। রাখাল তখন তাদের সামনে গিয়ে নিজের পরিচয় দিল, তারা তো ছোটপরী ভালো আছে শুনে খুশি হয়ে তখনি রাখালের সাথে চলে এলো তাদের বাসায়। তারপর তো সাতবোনের একে অপরকে জড়িয়ে ধরে কান্না, হাসি আর গল্প চলল সারারাত ধরে। ছোটপরীর ছেলেটিকে মাসীরা মিলে খুব আদর করলো।ঠিক সাতদিন পরে যখন তাদের যাবার সময় হলো, রাখাল একফাঁকে ছুটে গিয়ে ছোটপরীর ডানাজোড়া নিয়ে এসে তার হাতে দিয়ে সব কাহিনী খুলে বলল। পরী স্তম্ভিত হয়ে শুনলো। শেষে রেগেমেগে ডানাজোড়া পরে বলল, 'তুমি যা করেছ, তার জন্যে ক্ষমা নেই। তুমি থাক এখানে তোমার ছেলে নিয়ে একা, আমি চললাম দিদিদের সাথে। তারপর সে সত্যিই সরোবরের তীরে এসে দিদিদের সাথে দেখা করে ওদের সঙ্গে উড়ে চলে গেল স্বর্গরাজ্যে তাদের বাসায়।কিন্তু স্বর্গে এসেও শান্তি নেই। ছোটপরীর মন পড়ে আছে সরোবরের তীরের সেই পাহাড়ি গ্রামের ছোট্ট এক কুঁড়েঘরে, যেখানে আছে তার ছেলে আর সেই রাখাল। এক এক করে তার সেই দিনগুলোর কথা মনে পড়তে লাগলো, সেই রাত জেগে তাদের গল্প করা, নির্জন মাঠে রাখালের বাঁশি শুনতে শুনতে ঘুমিয়ে পড়া। একটা চাতুরী রাখাল করেছিল, কিন্তু মানুষটা তো সে খারাপ নয়, চাইলে তো সে পাখাগুলো ফেরত না দিলেও পারত। স্বর্গে সব আছে, সবকিছুই সুন্দর এখানে, কিন্তু ভালবাসা নেই, বন্ধুত্ব বলে কিছু নেই। আর দু:খের স্বাদ যে একবার পেয়েছে সেই জানে একটানা সুখও বড় একঘেয়ে- স্বর্গে তো দু:খ বলে কিছু নেই। সবচেয়ে বড় কথা সে ভুলতে পারছে না সেই ছোট্ট বাচ্চাটিকে যে আর কদিন পরেই তাকে মা বলে ডাকত, না জানি সে কত কাঁদছে, রাখাল কি একা সামলাতে পারছে ঐটুকু বাচ্চাকে? ছোট পরীর চোখে ঘুম নেই, চোখ বুজলেই কানে আসে ছোট শিশুর কান্নার আওয়াজ। সেও কাঁদে আর শুধু এইসব কথা চিন্তা করে।ছোট যাই করুক বড়দিদিদের চোখ এড়ায় না। শেষে ব্যাপারটা তাদের বাবাও জানতে পারলেন। তিনি বললেন ' মানুষের দুনিয়ায় সংসার পেতে তুমি তো পরীদের দুনিয়ার নিয়ম ভেঙেছ। এর জন্য আমারও কিছুটা সম্মানহানি হয়েছে । তা শুধু শুধু তোমার শাস্তি বাড়িয়ে তো সে সম্মান আমি ফিরে পাব না, তুমি যাও, যেখানে গিয়ে সুখ পাও যেতে পার'। রাজা চলে গেলেন, বোধহয় তাঁর চোখেও জল এসে পড়েছিল।(৩)এদিকে রাখালেরই কি খুব সুখে দিন কাটছিল? পরী চলে যাবার পর থেকে ঘর-দোর অগোছালো, ছেলেকে সে না পারে ঠিকভাবে খাওয়াতে, না পারে ঘুম পাড়াতে। এক বুড়ি দাই দেখাশোনা করে বলেই কোনমতে বাঁচিয়ে রাখতে পেরেছে। যাবার সময় পরী তার উপর রাগ করে গেছে। সেটাই স্বাভাবিক, তা বলে সে একবারও ভাবলো না তার কোলের ছেলেটির কথা। আর কি সে ফিরে আসবে কোনদিন! রাখাল ভাবে আর অভ্যাসমত ছেলেকে কোলে করে রোজই এসে বসে থাকে সরোবরের তীরে, সেই গাছটির তলায়। তার আজকাল আর বাঁশি বাজানোতেও মন নেই।সেদিনও অমনি বসে আছে সরোবরের তীরে, হঠাত মনে হলো, আকাশ থেকে কে যেন একটা নামছে। প্রথমে ঈগলপাখি ভেবে বাচ্চাকে কোলে নিয়ে লুকোতে যাচ্ছিল, তারপর বুঝতে পেরেই তার চোখ-মুখ উজ্জ্বল হয়ে ওঠে। এ যে ছোটপরী। রাখাল ভাবলো পরী বোধহয় থাকতে না পেরে তার ছেলেকে নিয়ে যেতে এসেছে। রাখাল ধীরে ধীরে ছেলে কোলে পরীর দিকে এগিয়ে গেল।কিন্তু একি করছে ছোট পরী, সে মাটিতে নেমে ডানাজোড়া প্রথমে খুলে রাখল। তারপর কোত্থেকে একটা চকমকি বের করে তা ঠুকে আগুন জ্বালালো। তারপর পাখাজোড়াটাকে নিয়ে সেই দৃঢ়ভাবে সেই আগুনে ফেলে দিল।'একি, একি করলে তুমি', ছুটে এলো রাখাল, জিজ্ঞাসা ভরা দৃষ্টিতে তাকাল পরীর দিকে। 'আর তো তুমি ফিরে যেতে পারবে না'।'আর আমি যেতে চাইও না; এখানে তুমি আছো, আমার ছেলে আছে, আমার পরিবার ছেড়ে আমি কোথাও গিয়েই আনন্দে থাকতে পারব না।' বলে ছুটে এসে সন্তানকে কোলে তুলে নিল ছোটপরী।তারা পরম নিশ্চিন্তে হাঁটা দিল গ্রামের পথে। পিছনে পুড়ে ছাই হতে থাকলো পরীর ডানাজোড়া। "
    },
    {
        "title": "রাজকন্যা ইন্দুমতি এর গল্প(পার্ট-১)",
        "details": " গম্ভীর রানীর গল্প অনেক দিন আগের কথা, চীন দেশে ছিল এক রাজা। রাজার হাতিশালে হাতি, ঘোড়াশালে ঘো্ড়া, রাজ্যজুড়ে সুখ আর শান্তি। রাজার প্রজা প্রতিপত্তি সব ছিল। ছিল না শুধু মনে সুখ। রাজার খালি থেকে থেকে বড় একা লাগত। আসলে সেই দেশের রাজার সব ছিল, ছিল না শুধু এক রানী। তাই এই মনের অসুখ। একদিন রাজা ঠিক করলেন যে তাঁর সৈন্য-সামন্তদের নিয়ে যাবেন রানীর সন্ধানে। যেমনটি ভাবা তেমনটি কাজ। রাজা তাঁর সব চেয়ে তেজী ঘোড়াটা আর তাঁর সাতজন সবচেয়ে বিশ্বাসী আর বলিষ্ঠ সৈন্যদের নিয়ে বেরিয়ে পরলেন রানীর সন্ধানে, দেশ থেকে দেশান্তরে। নানান দেশে যান। কত দেশের কত সুন্দরী রাজকন্যে। তাদের নানান গুণ। কিন্তু রাজার মন ভরে না। কোথাই সেই মেয়ে যে রাজার মনে এনে দেবে দু দণ্ডের শান্তি, সেই সুখ। একদিন রাজা তাঁর সৈন্যসামন্তদের নিয়ে এসে পৌঁছলেন এক হ্রদের তীরে। সন্ধ্যা নেমে আসছিল, তাই তিনি ঠিক করলেন রাতটা এখানেই থেকে যাবেন। সৈন্যদের ডেকে তিনি আদেশ দিলেন হ্রদের ধারে তাঁবু খাটাতে। রাত্রে খাবার আয়োজন চলছে, এমন সময় রাজার কানে এল এক অদ্ভুত সুন্দর সুর। রাজা সেই সুরের খোঁজে হ্রদের কাছে এসে দেখলেন একটি মেয়ে চাঁদনী আলোয় হ্রদের মধ্যে ছোটো এক নৌকা বিহার করছে । চাঁদের আলোয় সেই মেয়ের অপূর্ব মায়াবী মুখখানি দেখে রাজার বুকে অচেনা এক ঢেউ চলকে উঠল। যেন এই মেয়েকেই তিনি খুঁজে চলেছিলেন এতদিন। এই মেয়েটিই গাইছে সেই অদ্ভুত মিষ্টি গান। রাজা তাঁর সৈন্যসামন্তদের ডেকে বললেন, মেয়েটিকে ডেকে আনতে।নৌকাটি তীরে এসে পৌছল। রাজা মেয়েটিকে হাত ধরে নিয়ে এলেন পাড়ে, নিমন্ত্রণ জানালেন তাঁর সাথে নৈশভোজের। মেয়েটি সেই নিমন্ত্রণ গ্রহণ করে রাজার সাথে তাঁর তাঁবুতে এসে বসল। রাজা নানান কথার মাঝে তাকে তাঁর ভাললাগার কথা বললেন। বললেন তাকে তাঁর রানী করে দেশে নিয়ে যেতে চান। মেয়েটি শুনে জিজ্ঞেস করল তিনি তো তাকে আজই প্রথম দেখলেন, তাকে ঠিক মত চেনেনও না, তবে কেন তাকেই রানী করতে চান? সেই শুনে রাজা মেয়েটি কে সব খুলে বললেন। এও বললেন তিনি বহু দিন ধরে তারই মতো কাউকে খুঁজে চলেছিলেন দেশ-বিদেশে। রাজা তাকে আসস্ত্ব করলেন তিনি তাঁর সবটুকু ভালোবাসা দিয়ে তাকে ভরিয়ে রাখবেন। তার সমস্ত সুখের খেয়াল রাখবেন। সেই শুনে মেয়েটি তাঁর প্রস্তাবে সম্মতি জানিয়ে তাঁকে বিয়ে করতে রাজি হল। রাজার আনন্দ আর ধরে না। পরদিন ভোরবেলা তিনি তাঁর সৈন্যসামন্তদের নিয়ে বেরিয়ে পড়লেন তাঁর রাজধানীর পথে। কিন্তু এতো কথার মাঝে রাজা তো ভুলেই গেছেন মেয়েটির নাম জিজ্ঞেস করতে। রাজা জিজ্ঞেস করলেন,তোমার নাম কি? মেয়েটি জানালো তার নাম জীনা। সে নানান দেশ এ ঘুরে এখানে এসেছে। কিন্তু এর বেশি সে আর কোন কোথাই বলল না। রাজা লক্ষ্য করলেন জীনা চুপচাপ। তেমন কোন কোথাই বলছে না। রাজা তাঁকে তার বিশণ্ণতার কথা জিজ্ঞেস করতে সে বললচিন্তার কিছু নেই, সব ঠিক হয়ে যাবে।রাজা ফিরে এলেন দেশে। বিয়ে করলেন তাঁর বহু আকাঙ্ক্ষিত সেই মেয়েটিকে। দেশ জুড়ে তিনদিন ধরে চললো আনন্দের উৎসব। সবাই ভীষণ খুশী নতুন রানীকে পেয়ে। নানান রঙে নানান খুশীতে ভরে উঠল রাজার মন। কিন্তু হায়...রানীর মুখে কোথাও হাসির দেখা নাই। রানী তাঁর সব কর্তব্য সব দায়িত্ব নিপুণ হাতে নিজের কাঁধে তুলে নিয়েছেন। রানীকে পেয়ে রাজ্যের সব প্রজা ভীষণ খুশী। কিন্তু, রানীর মুখে এক অদ্ভুত বিশণ্ণতা। রানীকে রাজা বহুবার জিজ্ঞেস করেছেন, তাঁর কি এই প্রাসাদে কোন অসুবিধা বা মনে কোন দুঃখ আছে কিনা। রানী তাঁর কোন উত্তরই দেন না। চুপ থাকেন। রাজা তাঁর রানীর মুখে হাসি ফোটানোর জন্যে কতকিছু করলেন, কত ভেলকিবাজি কত মশকরা দেখালেন, কিন্তু রানীর মুখে হাসি নেই। রাজার কোন পন্থাই কাজে দিল না রানীর মুখে হাসি ফটাতে। একদিন রাজার মাথায় এক অভিনব পন্থা এল রানীর মুখে হাসি আনার। তিনি তাঁর সবছেয়ে বিস্বস্ত্ব উপদেষ্টাকে ডেকে বললেন সন্ধ্যেবেলা তিনি যখন তাঁর নিজের কক্ষে থাকবেন রানীর সাথে তখন সে যেন এসে বলে বিদেশী সৈন্যরা এসে দরজায় উপস্থিত, তাঁর প্রাসাদ দখল হতে চলেছে।সেইদিন নৈশভোজের পর রাজা তাঁর রানীকে নিয়ে তাঁর শয়নকক্ষে ছিলেন। রাজা তাঁর পালঙ্কে বসে হস্তাঙ্কন অভ্যাস করছিলেন আর রানী তাঁর এলো চুল আঁচড়াচ্ছিলেন। সেই সময় তাঁর পারিষদ দৌড়োতে দৌড়াতে এসে বলল মহারাজ, বিদেশী সৈন্যরা এসে প্রাসাদের দরজায় প্রাসাদ দখল করতে এসেছে, তাড়াতাড়ি চলুন। এই শুনে রাজা তাড়াহুড়ো করে পালঙ্ক থেকে ঊঠতে গেলে তাঁর দোয়াত ঊল্টে সমস্ত কালি চোখেমুখে লেগে গেল। তাই দেখে রাণী হাসিতে ফেটে পরলেন। রাজা রাণীর এই হাসি দেখে আনন্দে লাফালাফী করতে লাগলেন। অবশেষে তাঁর পন্থা কাজে দিয়েছে। তিনি রাণীকে সব খুলে বললেন যে তিনি তাঁর মূখে হাসি ফোটানোর জন্যে এই কীর্তি করেছেন। সেই শুনে রাণী দ্বিগুণ হাসিতে ফেটে পরলেন। কিন্তু পরদিন রাণীর মুখে আবার সেই বিষণ্ণতা ফিরে এলো। রাণীর মুখে হাসি আবার কোথাই হারিয়ে গেল। রাজা ভাবলেন রাণীর অতীতে নিশ্চয় কোনো দুঃখর ঘটনা ঘটেছে, তাই তাঁর এই বিষণ্ণতা বারবার ফিরে আসে। এমন সময় রাজার এক দূত ছুটতে ছুটতে এসে খবর দিল মহারাজ, বিদেশী সৈন্য এসে সিংহদুয়ার দখল করেছে, আর বেশী দেরী নেই প্রাসাদ দখল করতে। রাজা ভাবলেন সে বোধহয় রাণীর মুখে হাসি ফেরানোর জন্যে এই কথা বলছে। রাজা বললেন -এই কথায় রাণী আর হাসবেনা দূত, অন্য ঊপায় ভাব। কিন্তু হায়! কোন উপায় নাই। দূত বলল -মহারাজ এবার সত্যই বিদেশী সৈন্য প্রাসাদ আক্রমণ করেছে।। রাজা বাইরে এসে দেখলেন তাঁর প্রাসাদ বিদেশী সৈন্যরা ঘিরে ফেলেছে। কামানের গোলা এসে পড়ছে প্রাসাদের গায়ে।রাজা চিৎকার করে তাঁর সৈন্যদের ডাকলেন। কিন্তু ততক্ষণে অনেক দেরী হয়ে গেছে। বিদেশী রাজা এসে রাজার সৈন্যসামন্তদের মেরে ফেললেন। রাজাকেও তাঁর হাতে প্রাণ দিতে হলো। বিদেশী রাজা এসে তাঁর রাজ্য, রাজপ্রাসাদ, এমনকি তাঁর রাণীও দখল করে বসল। রাজা তাঁর রাণী জিনার হাসির মাসুল দিলেন।"
    },
    {
        "title": "ভালুক রাজকুমার ও নিনফার গল্প",
        "details": "মোমোতারো এর গল্প সে অনেক কাল আগের কথা। ছিল এক কাঠুরে আর তার বউ। তাদের অনেক বয়স হয়েছিল। একদিন কাঠুরে-বউ একগাদা জামাকাপড় নিয়ে যাচ্ছিল নদীর দিকে। নদীর জলে যত ময়লা ধুয়ে সাফ করবে বলে।নদীর জলে চোখ পড়তেই দেখল মস্ত বড় একটা পীচফল জলে ভেসে বেড়াচ্ছে। সঙ্গে সঙ্গে বুড়ির মনটা আনন্দে নেচে উঠল। মনে মনে বলল আজ রাতে তবে মিষ্টি এই ফল খেয়েই পেট ভরবে।- এই ভেবে সে নদীতে ঝাঁপিয়ে পড়ল। তারপর সেটা নিয়ে রাখল ডাঙায়।জামাকাপড় ধুয়ে পীচফলটাকে কাঁধে চাপিয়ে সে এল বাড়িতে।বুড়ো তো বুড়িকে দেখে অবাক! বলল, এটা আবার কোথা থেকে আনলে?বুড়ি বুড়োকে বলল, এটা নদীতে ভেসে যাচ্ছিল, নদীতে ঝাঁপিয়ে পড়ে তবে নিয়ে এসেছি।বুড়ো বলল, বাঃ আজ রাতে তবে ফল খেয়েই থাকতে পারব।সন্ধে হল। রাত হল। এবারে খাওয়া দাওয়ার পালা। খাওয়া বলতে আজ সারাদিনে আর কিছুই তো ভাগ্যে জোটেনি, এই ফলটুকু ছাড়া।একটা ধারালো ছুরি দিয়ে ফলটাকে কাটা হল। ফলটাকে কাটতেই দুজনে অবাক! এ যে বিশ্বাসই করা যায়না। একটা ছোট্ট ছেলে, খুবই ছোট্ট, ফলের মধ্যে কেমন ঘুমিয়ে আছে! বুড়োর মুখে কথা নেই।বুড়ির মুখে কথা নেই।কিছুক্ষণ পর বুড়ো বলল, ছেলেটাকে ভাবছি ডাকব মোমোতারো বলে।বুড়ি বলল, বেশ ভালো নাম রেখেছ। আমরা ওকে কোলেপিঠে মানুষ করব। দেখবে ছেলেটা আস্তে আস্তে ঠিক বড়ো হবে।দিন যায়। মাস যায়। মোমোতারো বড়ো হয়। দেখতে দেখতে মোমোতারো আরও বড়ো হয়ে উঠল।একদিন গম্ভীর গলায় সে তার বাবা-মাকে বলল, আমি এখন ওগ্রু দ্বীপে যাব। আমার জন্য কিছু গরম গরম পিঠে বানিয়ে দেবে কি?মা বাবা তো ভেবেই অস্থির। বলল, সেখানে গিয়ে তুই কি করবি?মোমোতারো বলল, শুনেছি সেখানে এক রাজা আছে। একবার রাজার কাছে যেতে দাও।আমি জানি সেখানে গেলেই আমাদের ভাগ্য খুলবে।মা বাবা আর কি বলেন! শুধু যাবার সময় পই পই করে বললেন, ঠিকমতো রাস্তা দেখে চলবি। রাস্তায় যাকে পাবি মিষ্টি করে কথা বলবি। সে যদি খেতে চায় খেতে দিবি। ভাল ব্যবহার করবি। কাউকে দুঃখ দিবি না। কারো সঙ্গে বেইমানি করবি না। কখনও মিথ্যে বলবি না।মোমোতারো মাথা নাড়িয়ে নাড়িয়ে সব কথা শুনল, তারপর কাঁধে পিঠের ব্যাগ ঝুলিয়ে রাস্তার দিকে পা বাড়াল।কিছুদূর যেতেই দেখা এক বানরের সঙ্গে। 'কিয়া' 'কিয়া' শব্দ করে বানরটা কাছে এসে বলল, মোমোতারো ভাই আমার, কোথায় যাচ্ছ তুমি?মোমোতারো যেতে যেতে বলল, আমি ওগরু দ্বীপে যাচ্ছি। শুনেছি সেখানে এক রাজা আছে। একবার রাজার কাছে যেতে দাও। আমি জানি সেখানে গেলেই আমাদের ভাগ্য খুলবে। জান তো, এতদূর যাব বলে আমার মা আমার জন্য গরম গরম পিঠে বানিয়ে দিয়েছে।বানরটা বলল, যদি তুমি আমাকে একটা পিঠে খেতে দাও, আমি তোমার সঙ্গে যেতে পারি। মোমোতারো আর কি করে!সঙ্গে সঙ্গে তাকে একটা পিঠে খেতে দিল। পিঠে খেয়ে বানর এবার মোমোতারোর সঙ্গে হেঁটে চলল।অনেক দূর চলে এসেছে অমনি দেখা এক ময়ূরের সঙ্গে।'কেন' 'কেন' শব্দ করে ময়ূর কাছে এসে বলল, মোমোতারো ভাই আমার, এই অবেলায় যাচ্ছ কোথায়?মোমোতারো যেতে যেতে বলল, আমি যাচ্ছি ওগরু দ্বীপে।শুনেছি সেখানে এক রাজা আছে। আমি জানি সেখানে গেলেই আমার ভাগ্য খুলবে। জানো তো, আমার মা আমার জন্য গরম গরম পিঠে বানিয়ে দিয়েছে।ময়ূর বলল, যদি তুমি আমাকে একটা পিঠে খেতে দাও, আমি তোমার সঙ্গে যেতে পারি।মোমোতারো বলল, এটা আর বলতে! এই নাও পিঠে, এক্ষুনি চলে এসো।পিঠে খেয়ে ময়ূর এবারে মোমোতারোর সংগে হেঁটে চলল।এবারে কিছুদূর যেতেই 'ঘেউ' 'ঘেউ' শব্দ করে একটা কুকুর দৌড়ে এল। বলল, মোমোতারো কোথায় যাচ্ছ শুনি?মোমোতারো যেতে যেতে বলল, আমি যাচ্ছি ওগরু দ্বীপে।জানো তো, আমার মা আমার জন্য গরম গরম পিঠে বানিয়ে দিয়েছে।কুকুর বলল, যদি তুমি আমাকে একটা পিঠে দাও, তোমার সঙ্গে আমিও যেতে পারি। মোমোতারো বলল, বেশ তো, এই নাও পিঠে, খেতে খেতে চলো। অনেক হাঁটাহাঁটির পর মোমোতারো এল ওগ্রু দ্বীপে। ওর সঙ্গে সঙ্গে এল বানর, ময়ূর আর সেই কুকুর। হাঁটতে হাঁটতে এসে পৌঁছোল রাজার বাড়ি।ওগ্রু দ্বীপের রাজা মোমোতারো কে দেখে বলল, তোমার নাম কি বাছা? এখানে কেন এসেছ?মোমোতারো বলল, আমার নাম মোমোতারো। আমি এসেছি ওগ্রু দ্বীপের রাজার কাছে। মানে আপনার কাছে। লড়াই করব বলে।রাজা মোমোতারোর সঙ্গী বানর, কুকুর আর ময়ূরকে দেখে অবাক হলেন। বললেন, আমি বুড়ো হয়েছি। লড়াই করে আর কাজ নেই বাছা। আমার ছেলেপুলে নেই। তুমি খুব বুদ্ধিমান আর শক্তিধর। তুমি এখানেই থেকে যাও। আমার পরে তুমিই এদেশের রাজা হবে।মোমোতারো বলল, তা হয় না রাজামশাই। আমার দুঃখী মা-বাবা আমার পথ চেয়ে বসে থাকবে। সিংহাসনের চেয়ে আমার কাছে অনেক বড়ো আমার মায়ের কোল।রাজা খুব খুশি হয়ে বললের, তোমাকে কিছু সোনাদানা উপহার দিচ্ছি। এই নিয়ে বাড়ি ফিরে যাও। সবাই খুশি হবে।তখনই মোমোতারোর কাছে এসে পৌঁছোল এক বস্তা ভর্তি সোনারূপো হিরে আর জহরত। আর এল একখানা কোট, সঙ্গে নীলটুপি।রাজা বললেন, শোনো, এই অদ্ভূত কোটটুপি পরলে তোমাকে কেঊ দেখতেও পাবে না। বিপদে আপদে শুধু এই কোটটুপি ব্যবহার করবে। কারোর ক্ষতি করবে না।মোমোতারো এত সব পেয়ে ভীষণ খুশি।বস্তাভর্তি সোনারূপো কাঁধে ঝুলিয়ে, একহাতে কোটটুপি নিয়ে, সে ছুট দিল বাড়ির দিকে।বানর, ময়ূর আর সেই কুকুরটাকেও সঙ্গে নিতে ভুলল না সে।"
    },
    {
        "title": "মোমোতারো এর গল্প",
        "details": "ভালুক রাজকুমার ও নিনফার গল্প সে অ-নে-ক দিন আগের কথা। এক ছিল কাঠুরে। সে ছিল খুব গরীব। বন থেক কাঠ কেটে বাজারে বিক্রি করে সে তার দিন গুজরান করত। তার ছিল তিনটি মেয়ে। তার মধ্যে ছোটটি ছিল সব থেকে সুন্দরী।একদিন কাঠুরে বনের মধ্যে এক বিশাল গাছ কাটছে। এমন সময়ে , হঠাৎ কোথা থেক এক বিশাল, ভয়ানক ভালুক তেড়ে এসে তার হাত মুচড়ে কুঠারটা কেড়ে নিল এটা আমার জঙ্গল। এখানে তোমাকে কাঠ কাটার অনুমতি কে দিল?  হুঙ্কার দিয়ে বলল ভালুক।  তুমি আমার কাঠ চুরি করেছ! এবার তোমাকে নিজের প্রাণ দিয়ে এর দাম দিতে হবে । ভালুক মশাই, আমাকে ক্ষমা করুন , কেঁদে বলল কাঠুরে বেচারা,  আমি তো শুধু একটু কাঠ কাঠছিলাম- এগুলিকে বেচে আমার তিনটে ছোট ছোট মেয়েকে খাইয়ে পরিয়ে রাখি। আপনি যদি আমাকে মেরে ফেলেন, তাহলে তো ওরা না খেতে পেয়ে মারা যাবে ।ভালুক খানিক ভাবল। তারপরে বলল-  তোমার বাঁচার একটাই মাত্র উপায় আছে। তোমার যে কোন একটি মেয়ের সাথে আমার বিয়ে দাও । কাঠুরে তো হতবাক! কি বলবে বা কি করবে ভেবেই পেল না। তারপরে যখন ভেবে দেখল যে সে মরে গেলে তার মেয়েগুলি আশ্রয়হীন হয়ে পড়বে, তখন সে ভালুকের প্রস্তাব মেনে নিল।দিনের শেষে কাঠুরে বাড়ি ফিরে এল। খেতে বসে তার তিন মেয়েকে বললে সব কথা। কাঠুরের বড় মেয়ে বলল-   বাবা, ভালুককে বিয়ে করার থেকে মরে যাওয়া ভাল ।মেজ মেয়ে বলল-   বাবা, আমারও একই কথা ।বড় দুই মেয়ের কথা শুনে কাঠুরে মুষড়ে পড়ল। তখন তার ছোট মেয়ে নিন্ফা বলল-  বাবা, আমি ভালুককে বিয়ে করব ।পরের দিন নিন্ফা আর তার বাবা জঙ্গলে গেল। সেখানে ভালুক তাদের জন্য অপেক্ষা করেছিল। সুন্দরী নিন্ফাকে দেখে ভালুকের বেশ পছন্দ হল।নিন্ফা ভালুককে শর্ত দিল। সে বলল-  আমার মা আমাকে বলেছিলেন সব সময়ে ঈশ্বরের নির্দেশ মেনে চলতে। তাই আমি যদি আপনাকে বিয়ে করি, তাহলে পাদ্রির সামনে বিয়ে করব ।ভালুক নিন্ফার কথায় রাজি হল। সে জানাল, পাদ্রীকে তাহলে জঙ্গলে আসতে হবে। কাঠুরে পড়িমড়ি করে ছুটল পাদ্রীর খোঁজে। অনেক খুঁজে একজন পাদ্রীকে নিয়েও এল। তিনি মন্ত্র পড়ে ভালুক আর নিন্ফার বিয়ে দিলেন।বিয়ের পরে ভালুক নিন্ফাকে নিয়ে জঙ্গলের গভীরে নিজের গুহার দিকে রওনা দিল। কাঠুরে মন খারাপ করে পাদ্রীর সাথে ঘরের পথ ধরল।যখন সন্ধ্যা নেমে এল, তখন গুহার ভেতরে অন্ধকার ঘনিয়ে এল। সেই অন্ধকারের মধ্যে দাঁড়িয়ে জোরালো গলায় ভালুক এক মন্ত্র আওড়ালোঃবিরাট ভালুক, লোমশ ভালুক, ভালুক ভয়ঙ্কর-বদলে হও রাজপুত্তুর- সাহসী, সুন্দর!মন্ত্র পড়ার সাথে সাথে ভালুক বদলে হয়ে গেল এক সুন্দর রাজপুত্র। সে নিন্ফাকে বলল-  আমি এক অভিশপ্ত রাজকুমার; এক ডাইনির অভিশাপে আমি দিনে ভালুক হয়ে যাই, আর রাতে আবার মানুষ হয়ে যাই। তুমি এখানে নিজের মনের আনন্দে থাক, যা ইচ্ছা তাই কর। একটাই শর্ত- তুমি কাউকে বলতে পারবে না যে আমি একজন অভিশপ্ত রাজকুমার। পরের দিন রাজপুত্র ঘুম থেকে উঠে বলল-রাজপুত্তুর- সাহসী, রাজপুত্তুর সুন্দর!বদলে হও বিরাট ভালুক, লোমশ ,ভয়ঙ্কর !মন্ত্র বলার মুহুর্তের মধ্যে রাজপুত্র বদলে আবার ভালুক হয়ে গেল।বেশি কিছুদিন কেটে গেল। নিন্ফা ভালুকের সাথে আনন্দেই থাকে, কিন্তু তার বাড়ি যেতে ইচ্ছা করে, বাবা আর দিদিদের দেখতে ইচ্ছা করে। শেষে সে একদিন সাহস সঞ্চয় করে রাজপুত্রের কাছে অনুমতি চাইল-  এই জঙ্গলে তোমার সাথে ছাড়া তো আর কারোর সাথেই কথা বলতে পারি না। আমার খুব ইচ্ছা করছে বাবা আর দিদিদের সাথে দেখা করতে। বাড়ি তো এমন কিছু দূরে নয়। আমি তাড়াতাড়ি যাব আর অন্ধকার হওয়ার আগেই ফিরে আসব। রাজপুত্র নিন্ফাকে যেতে দিতে চাইছিল না। কিন্তু নিন্ফা যখন খুব মনখারাপ করে কাঁদতে শুরু করল, তখন সে রাজি হল। কিন্তু সে নিন্ফাকে বার বার করে বলে দিল যেন কে কিছুতেই তার গোপন কথা কাউকে না বলে।পরের দিন নিন্ফা ভোর ভোর ঘুম থেকে উঠল। সে রাজপুত্রের দেওয়া ভাল জামাকাপড় পরে সুন্দর করে সেজে নিল। বাড়ি গিয়ে বাবা আর দিদিদের সাথে দেখা হতেই তাদের তো আনন্দের আর শেষ নেইকিন্তু কিছুক্ষণ পরে তার ভাল জামা, আর সুন্দর গয়না দেখে তার দিদিদের খুব হিংসা হল। তারা তখন ছোট বোন কে দুঃখ দেওয়ার জন্য বলতে থাকল-  কি লজ্জা! তোর একটা ভালুকের সাথে বিয়ে হয়েছে।  আর ভালুকের সম্পর্কে আরো খারাপ খারাপ কথা বলতে থাকল।দিদিদের মুখে ভালুকের সম্পর্কে মন্দ কথা অনেকবার শুনতে শুনতে নিন্ফার এক সময়ে খুব রাগ হল। রাগের মাথায় সে ভালুকের জীবনের গোপন অভিশাপের কথা দিদিদের কাছে বলে দিল। দিদিরা তো সেই কথা শুনে অবাক!নিন্ফার বড় দিদি তখন এক বুদ্ধি দিল   তুমি এক কাজ কর। আজ তারে ভালুককে অনেক ভাল ভাল খেতে দাও। প্রচুর খেয়ে ভালুক যখন গভীরভাবে ঘুমাবে, তখন ওর হাত আর মুখ বেঁধে দাও। সকালে ঘুম ভাঙলে ভালুক আর চেহারা বদলানোর মন্ত্র বলতে পারবে না। তাহলেই ওই মন্ত্রের জাদু নষ্ট হয়ে যাবে। তখন তোমার বর আর কোনদিনই ভালুক হবে নানিন্ফা সন্ধ্যেবেলা ভালুকের গুহায় ফিরে এসে দিদির কথামত ভালুককে ভালমন্দ খেতে দিল। পরের দিন সকাল বেলা ঘুম ভেঙে উঠে ভালুক তো অবাক হয়ে গেল তার নিজের হাত-মুখ বাঁধা দেখে।তার ইশারায় নিন্ফা তার মুখের এবং হাতের বাঁধন খুলে দিল। তখন রাজপুত্র তাকে করুণ স্বরে বলল-  তুমি তোমার শপথ ভেঙে ফেলেছ নিন্ফা; এখন তোমাকে এর ফল ভোগ করতেই হবে; এই অভিশাপ থেকে আমি মুক্ত হতে পারতাম যদি তোমার সাথে এক বছর এক দিন থাকতে পারতাম। কিন্তু তুমি তো সেটা হতে দিলে না। আমি এখন চলে যাচ্ছি। তোমাকে এবার আমাকে খুঁজে নিতে হবে। আর তার জন্য তোমাকে আগে খুঁজে বার করতে হবে বিশ্বাসের প্রাসাদ। এই বলেই রাজপুত্র অদৃশ্য হয়ে গেল। নিন্ফা একা একা বসে অনেক্ষণ কাঁদল। তারপরে সে ঠিক করল সে তার স্বামীকে খুঁজে আনতে বিশ্বাসের প্রাসাদে যাবে।নিজের সামান্য কিছু জিনিষ একটা পুঁটুলিতে বেঁধে নিনফা বিশ্বাসের প্রাসাদের উদ্দেশ্যে যাত্রা করল। মাঠ-ঘাট-বন-জঙ্গল পেরিয়ে অনেক , অনেক দূর হেঁটে চলল সে।এক সময়ে নিন্ফা গিয়ে পৌঁছাল এক গভীর জঙ্গলের মধ্যে। সেখানে তার দেখা হল এক বুড়ো জাদুকরের সাথে। বুড়ো তাকে জিজ্ঞাসা করল   কন্যে, তুমি এই গভীর জঙ্গলে কি করছ? - আমি বিশ্বাসের প্রাসাদ খুঁজছি। আপনি জানেন, সেটা কোন দিকে?  আমি জানি না বিশ্বাসের প্রাসাদ কোথায় রয়েছে। তবে কিনা চাঁদ ঠাকরুণ বলতে পারেন। তাঁকে জিজ্ঞাসা করতে পার। তবে তিনি কিন্তু বড্ড রাগী, তাই খুব সাবধান। আর এই তিনটে বাদাম সাথে রাখ। যদি কোন বিপদে পড় তাহলে একটা করে বাদাম ভেঙে ফেল।তোমার উপকার হবে। বুড়োর সাথে কথা বলার পর নিন্ফা আবার চলতে শুরু করল। পথ চলে চলে ক্লান্ত মেয়েটা শেষে অবধি গভীর রাতে চাঁদ ঠাকরুণের বাড়ির সামনে পৌঁছাল। সে দরজায় ঠুকঠুক করে কড়া নাড়ল। এক বুড়ি এসে দরজা খুলে দিল। সে ছিল চাঁদ ঠাকরুণের রাঁধুনী। আহারে দুঃখিনী বাছা! তুমি এখানে কি করছ?  জিজ্ঞেস করল বুড়ি।   তোমাকে দেখতে পেলে তো রাগী চাঁদ ঠাকরুণ তোমার ঘাড় মটাকাবে!  নিন্ফা তাকে চোখের জল ফেলতে ফেলতে নিজের দুঃখের কথা সব খুলে বলল।বুড়ি নিন্ফাকে বলল-  তুমি চুল্লির পেছনে গিয়ে লুকাও। চাঁদ ঠাকরুণ এলে আমি জিজ্ঞাসা করে দেখব উনি বিশ্বাসের প্রাসাদ সম্পর্কে কিছু জানেন কিনা।উষাকালে কাজকম্মো সেরে চাঁদ ঠাকরুণ বাড়ি ফিরলেন। তাঁর মেজাজ তখন খুব গরম; আঙুলে বুনোফলের কাঁটা ফুটে গিয়েছে যে! রান্নাঘরে ঢুকেই চাঁদ ঠাকরুণ নাক-মুখ কুঁচকে বললেন- মানুষের গন্ধ যেন পাচ্ছি মনে হচ্ছে! এক্ষুনি মানুষটাকে ধরে এনে আমাকে দিবি, নাকি তোকেই ধরে খাব? সে কথা শুনে রাধুনী বুড়ি মুখ বেঁকিয়ে বলল-  আ মোলো যা! তোমার মাথা খারাপ হয়েছে ঠাকরুণ  চুল্লীতে মুরগি সেঁকতে দিয়েছি, আর তোমার মনে হচ্ছে মানুষের মাংস?? বসে তাড়াতাড়ি খেয়ে ঘুমাতে যাও দিকি। তুমি কাজ করে ক্লান্ত, তোমার মাথার ঠিক নেই। চাঁদ ঠাকরুণ তো গুছিয়ে খেতে বসলেন। ওদিকে রাঁধুনী বুড়ি বকবক শুরু করলে   আগের দিন প্যাঁচা এই পথ দিয়ে যাচ্ছিল, তা আমি ওর সাথে একটু গল্পগুজব করলাম আর কি...তা প্যাঁচা বলছিল সে নাকি কোন এক বিশ্বাসের প্রাসাদ এর কথা শুনেছে। তা আমি তাকে বললুম- আমাদের চাঁদ ঠাকরুণ কত কিছু জানেন, তিনি নিশ্চয় ওই প্রাসাদের কথাও জানেন। খেয়ে দেয়ে চাঁদ ঠাকরুণের মেজাজ একটু ঠাণ্ডা হয়েছে। তিনি বুড়িকে বললেন-  সত্যি বলতে কি, এটা আমি জানিনা । তবে কিনা সুয্যি মশাই জানতে পারেন। এই বলে চাঁদ ঠাকরুণ তো ঘুমাতে গেলেন। রাঁধুনী বুড়ি তাড়াতাড়ি দরজা খুলে নিন্ফাকে বাড়ি থেকে বার করে দিয়ে বলল- তাড়াতাড়ি হাঁটা লাগাও। চাঁদবুড়ি জেগে গেলেই মুশকিল! ওই সামনের পথ দিয়ে হাঁটো। সু্য্যি মশাই-এর বাড়ি পেয়ে যাবে।নিনফা আবার হাঁটা শুরু করল, আর অনেক পথ হেঁটে শেষে সূয্যি মশাই- এর বাড়ির পৌঁছাল। তার কড়া নাড়া শুনে দরজা খুলে দিল এক ছোট্টখাট্টো বুড়ি। হা ভগবান, সুন্দরী কন্যে!  সে অবাক হয়ে বলল-  তুমি এখানে কি করছ? তুমি কি জাননা সূয্যিমশাই তোমাকে এখানে দেখলে রেগে গিয়ে তোমাকে ঝলসে দিতে পারেন? বেচারি নিন্ফা কেঁদে কেঁদে বুড়িকে তার দুঃখের কথা সব জানাল। তার করুণ কাহিনী শুনে তো বুড়িও দুঃখিত হয়ে পড়ল। তাদের কথার মাঝেই ঘর ভরে গেল তীব্র আলোয়, আর সূয্যিমশাই সারাদিনের কাজ সেরে বাড়ি ফিরলেন। নিন্ফা বুঝল এইবার তাকে মরতে হবেই। সে ভয়ে চোখ বুজে ফেলল। আরে, আরে কত্তামশাই, করেন কি? থামুন থামুন!  চেঁচিয়ে উঠল বুড়ি ।  এই দুঃখিনী মেয়েটি বিশ্বাসের প্রাসাদ খুঁজছে...  ওহঃ তুমিই তাহলে বিশ্বাসের প্রাসাদ খুঁজতে এসেছ?  সূয্যিমশাই অবাক হয়ে বললেনচোখের জল ফেলতে ফেলতে নিন্ফা তার সাথে ঘটে যাওয়া সব দুর্ঘটনার কথা জানাল। হুম,আমি জানি সেই বিশ্বাসের প্রাসাদ ঠিক কোথায় আছেল কিন্তু দেখ, সন্ধ্যা হয়ে গেল, এখন তো আমার বাইরে যাওয়া সম্ভব নয়। কিন্তু হ্যাঁ, একটা উপায় আছে ! আমার খুব ভাল বন্ধু হলেন বাতাস বাবুমশাই। তিনি তোমাকে সেখানে নিয়ে যেতে পারেন। তুমি এক কাজ কর- এই পথ ধরে হেঁটে যাও, তাহলেই পৌঁছে যাবে বাতাস বাবুমশাই-এর বাড়ি; ওনাকে গিয়ে বল আমি তোমাকে পাঠিয়েছি ।আবার হেঁটে চলল নিন্ফা; আবারো অনেক পথ পেরিয়ে সে পৌঁছাল বাতাস বাবুমশাই-এর দরজায়; ঠুকঠুক করে দরজায় টোকা দিল সে। ভেতর থেকে ভেসে এক শনশন করে উত্তর   কে এসেছ বাইরে, ভেতরে চলে এস নিন্ফা ভেতরে ঢুকে বাতাস বাবুমশাইকে বলল তাকে পাঠিয়েছেন সূয্যিমশাই, একটা অনুরোধ নিয়ে। রাখব তোমার অনুরোধ  বললেন বাতাস বাবুমশাই,  সে যা-ই হোক না কেন নিন্ফা তখন বাতাস বাবুমশাইকে তার সব দুঃখের কথা প্রথম থেকে খুলে বলল। কোন চিন্তা কর না, আমি নিজে তোমাকে সেখানে নিয়ে যাব,  বললেন বাতাস বাবুমশাই।বাতাস বাবুমশাই-এর পিঠে চেপে বসল নিন্ফা, আর এক লহমায় পৌঁছে গেল এক বিরাট প্রাসাদের সামনে। এই হল বিশ্বাসের প্রাসাদ,  বললেন বাতাস বাবুমশাই,  দেখেশুনে মনে হচ্ছে ভেতরে কোন বড় উৎসব হচ্ছে! পুরো প্রাসাদটা দারুণ সুন্দর করে আলোয় সাজানো ছিল; ভেতর থেকে ভেসে আসছিল মিষ্টি বাদ্যযন্ত্রের আওয়াজ। আমাকে এবার যেতে হবে,  বললেন বাতাস বাবুমশাই,   ভয় পেওনা, তুমি তোমার কাজে ঠিক সফল হবে নিন্ফা প্রাসাদের দরজার কড়া নাড়ল, আর এক কর্মচারী বেরিয়ে এল।  আমি আপনাকে কি সাহায্য করতে পারি?  জিজ্ঞাসা করল কর্মচারী। আমি রাজপুত্রের সাথে দেখা করতে চাই,  জানাল নিন্ফা। মহাশয়া,  কর্মচারীটি বলল,  আপনি তো তাঁর সাথে এখন দেখা করতে পারবেন না। তাঁর আজ বিয়ে হচ্ছে কিনা, আর তিনি এখন রাজকন্যার সাথে বাজনার তালে তালে নৃত্য করছেন। একথা শুনে নিন্ফা বলল,  তাহলে আমাকে অন্তত এই আনন্দ অনুষ্ঠান দেখার একটা সুযোগ করে দিন দয়া করে। আমি এইরকম বড় অনুষ্ঠান আগে কোনদিন দেখিনি ।নিন্ফার আবদার শুনে কর্মচারী অনেক ভেবে বলল-  ঠিক আছে, আমি আপনাকে ভেতরে ঢুকতে দিতে পারি, কিন্তু খেয়াল রাখবেন, বিয়ের কনে রাজকন্যা যেন আপনাকে দেখে না ফেলেন; দেখেল কিন্তু খুব রেগে যাবেন, আপনি নিমন্ত্রিত নন কিনা... নিন্ফা ভেতরে ঢুকে দেখে তার স্বামী সেই রাজপুত্র, টেবিলে বসে অনেক অতিথিদের সাথে খাওয়াদাওয়া করছে। সে নিজে দেওয়ালের কোণ ঘেঁষে দাঁড়িয়ে রাজপুত্রের দৃষ্টি আকর্ষণ করার চেষ্টা করতে থাকল। কিন্তু রাজপুত্র তো অন্যদের সাথে গল্প করে যাচ্ছে। সে বেচারি নিন্ফাকে দেখতেই পেল না।এদিকে এক সময়ে নিন্ফাকে দেখে ফেলল সেই বিয়ের কনে। সে আসলে ছিল এক দুষ্টু ডাইনি, যে নিজের জাদুর জালে জড়িয়ে রাজপুত্রকে বন্দী করে বিয়ে করছিল।এই সময়ে রাজপুত্রও নিন্ফাকে দেখতে পেল। সে সঙ্গে সঙ্গে তার স্ত্রীকে চিনতে পারল। সে কর্মচারীদের হাঁক দিয়ে ডেকে বলল নিন্ফাকে তার কাছে নিয়ে আসতে। কিন্তু হই-হট্টগোলের মধ্যে কেউ তার কথা শুনতেই পেল না। ওদিকে দুষ্টু রাজকন্যা তার রক্ষীদের ডেকে বলল   শিগ্গির তোমরা ওই ভিখারিনী মেয়েটাকে ধরে বার করে দাও রক্ষীরা নিন্ফাকে সেই ধরতে গেল, সে তক্ষুণি সেই বুড়ো যাদুকরের দেওয়া একটা জাদু বাদাম ভেঙে ফেলল। সঙ্গে সঙ্গে সে এক ছোট্ট ইঁদুর হয়ে এদিক ওদিক ছুটতে লাগল। সেই দেখে ডাইনি এক বিরাট কালো বিড়াল হয়ে ইঁদুরকে তাড়া করল।ইঁদুর তখন এক লাফে টেবিলে উঠে রাজপুত্রের থালায় গিয়ে পড়ল। তখন ইঁদুর রূপী নিন্ফা আরেকটা বাদাম ভেঙে ফেলল। সে সঙ্গে সঙ্গে বদলে গেল ভাতের একটা কণা। রাজপুত্রের থালায় ছড়ানো অনেক ভাতের মধ্যে সে মিশে গেল। বিড়াল বেশী ডাইনী তখুনি টেবিলে উঠে পড়ে নিজেকে মুরগিতে বদলে নিল, আর কপকপ করে ভাত খেতে লাগল।নিন্ফা তখন বুড়ো জাদুকরের দেওয়া তৃতীয় জাদু বাদামটি ভেঙে ফেলল, আর নিজেকে কয়োটির রূপ দিল। সেই কয়োটি তখন মুরগিকে ধরে খেয়ে ফেলল।ডাইনী রাজকন্যাকে শায়েস্তা করার পরে নিন্ফা আবার মানুষের চেহারায় ফিরে এল। এর পরে সে রাজপুত্রের সাথে সুখে ঘরকন্না করতে থাকল। "
    },
    {
        "title": "গম্ভীর রানীর গল্প",
        "details": "রাজকন্যা ইন্দুমতি এর গল্প(পার্ট-১) নাহ্ !! আজ আর রাজকন্যের মনটা একটুও ভালো লাগছে না। রাণীমা এত্ত যত্ন করে কিশমিস কাজু দেওয়া গোবিন্দভোগ চালের পায়েস রেঁধে আনলেন। রুপোর বাটিতে সোনার চামচ গোঁজা সাদা ধবধবে মিষ্টি গন্ধওয়ালা পায়েস। রাজকন্যের ভারী প্রিয়, তাও এতটুকুনিও মুখে ছোঁয়াল না কন্যে। খেলতেও গেল না সখীদের সাথে।স্বয়ং রাজা বিক্রমজিৎ দরবারের সব কাজ ফেলে অন্দরমহলে এসে মেয়েকে কোলে নিয়ে বসে কত্ত গল্প শোনালেন। বাঘ শিকারের গল্প, হরিণ শিকারের গল্প। তাতে তো কন্যের মন গললোই না উল্টে ইয়াব্বড় মুক্তোর মত জলের ফোঁটা টপ টপ করে গড়াতে লাগল চোখ দিয়ে। রাজামশাই তো আরোই শশব্যস্ত হয়ে বলে উঠলেন, কীসের কষ্ট, কাঁদিস কেন?বল'না আমায় মা!মুখের কথা খসলে পরেইপাবি যা চাই তা।  ফুঁপিয়ে ফুঁপিয়ে কোনোক্রমে রাজকন্যা ইন্দুমতী বলল, মানুষ এত দুষ্টু কেনপশু শিকার করে!বাবা তোমার তীর ধনুকেকেউ যেন না মরে। এই শুনে তো রাজামশাই সঙ্গে সঙ্গে সারা রাজ্যে পশু শিকার নিষিদ্ধ ঘোষণা করলেন। সাথে সাথে এও ঘোষণা করলেন পশুপাখিদের জন্য অভয়ারণ্য গড়ে তোলা হবে। আর সেখানে যদি কোনো শিকারী বা ব্যাধ নিরীহ পশুদের আক্রমণ করে, তাহলে তক্ষুনি তাদের কারাগারে নিক্ষেপ করা হবে।এই শুনে রাজকন্যের সোনার বরণ মুখে প্রতিপদের চাঁদের মত একফালি হাসি খেলে গেল। কিন্তু সে মোটেই বেশিক্ষণের জন্য নয়। আবার হাসি মিলিয়ে গিয়ে ঘোর অমাবস্যে নামল।এবার এলেন রাজকন্যের প্রিয় দাদাভাই, রাজ্যের রাজপুত্তুর ইন্দ্রকুমার, বোনকে ভোলাতে। এমনিতে ভাই বোনে দিন রাত্তির খুনসুটি লেগেই আছে। এই একজন বোনের চুল ধরে টেনে দিয়ে পালাচ্ছে একজন তো অন্যজন দাদার পাঠশালের পুঁথি লুকিয়ে দিচ্ছে। কিন্তু যত ঝগড়াই হোক তবুও বোনের চোখে জল মোট্টে দেখতে ভালো লাগছেনা ছোট্ট রাজপুত্তুরের। তিনি তো অঙ্গভঙ্গী করে মজার মজার ছড়া বলে হাসানোর চেষ্টা করতে লেগে পড়লেন, হিহি হাহা হোহোরাশি রাশি হাসি!খক খক খুক খুকহাঁচি আর কাশি! তাতেও রাজকন্যে হাসে না। তখন রাজপুত্তুর সোনার দাঁড়ে ঝোলানো ময়না পাখিটাকে এনে রাজকন্যের সামনে রেখে তার লেজ ধরে টানতে লাগলেন। ভাবলেন রাজকন্যে বুঝি ভারী মজা পাবে। কিন্তু ও মা !! মজা কোথায় রাজকন্যে কাঁদতে কাঁদতে ছুট্টে গিয়ে ময়নার পায়ের রুপোর বেড়ি খুলে দিলেন। ওমনি ময়না ফুড়ুৎ। রাজপুত্র তো রেগে চীৎকার করতে যাবেন তক্ষুনি ওই একরত্তি মেয়ে গম্ভীর গলায় বলে উঠল, দাদাভাই তুমি দুষ্টুমি করলে যখন গুরুমশাই, বাবা তোমায় শাস্তি দিয়ে ঘরে বন্ধ করে রাখেন, তোমার ভালো লাগে? আর ময়না তো কোনো দুষ্টুমিই করেনি। ও তবে কেন বন্দী থাকবে বলো? এর উত্তরে তো কারোর মুখে আর কথা জোগায় না। অগত্যা রাজপুত্তুরও হার মেনে ফিরে গেলেন।অবশেষে এলেন রাণীমা, পদ্মাবতী। মেয়ের গায়ে মাথায় হাত বুলিয়ে কোলে বসিয়ে বললেন, হ্যাঁরে ইন্দু মা। বল না মা কী হয়েছে তোর? কেন তোর মন ভার? কেন হাসি নেই তোর মুখে ? তুই কী খেতে চাস বল মা। আমি সরু সরু সাদা চালের ভাত, সোনালী ঘি মাখিয়ে তোর মুখে তুলে দেব? কী পরবি বল মা। সোনা রুপোর জরিতে নকশা তোলা আশমানি রঙের শাড়ি বুনে দেবে কারিগর?তোর কোন খেলনা চাই বল মা। সেই ঝমঝম ঘুঙুর বাঁধা পুতুলটা? নাকি ছোট্ট চোখ ছোট্ট নাকওলা চিনে পুতুলটা?  মা আমার কিচ্ছুটি চাই না মা গো।  তবে কেন খাসনি মা? কেন তবে খেলতে যাসনি সইদের সাথে? বল আমায় সত্যি কথা। রাজকন্যে মাথা নেড়ে ছলোছলো চোখে ধরা ধরা গলায় বলে ওঠে।  সে কথা আমি বলতে পারব না মা গো। রাণীমা মেয়েকে বুকে জড়িয়ে ভাবেন, কীসের এমন কষ্ট মেয়ের যে মাকেও বলতে পারছে না। নিজের গলা থেকে পান্নার লকেট দেওয়া সোনার হারটা খুলে পরিয়ে দিলেন ইন্দুমতীর গলায়। মেয়ের মাথায় হাত বুলিয়ে বললেন, আমি যখন ছোট ছিলাম তোর মতো, আমার মা আমায় এই লকেটটা দিয়ে একটা মন্ত্র শিখিয়েছিলেন। লকেটটা মুঠোয় ধরে চুপিচুপি এই মন্ত্রটা আওড়ালে, সব সমস্যা জাদুবলে অদৃশ্য হয়ে যাবে। আয় তোকে শিখিয়ে দি।  পান্নাপরী, লুকোচুরিআর খেলোনা আমার সাথে,ডাকছি তোমায় দাও সাড়াটিঘোচাও দুঃখ নিজের হাতে। মেয়েকে মন্ত্র শিখিয়ে রাণীমা চলে গেলেন। ইন্দুমতী লকেটটা হাতে নিয়ে নাড়াচাড়া করতে লাগল। ভাবতে লাগল তার সমস্যার সমাধান কি সত্যিই হবে এই লকেট দিয়ে। বিড়বিড় করে মায়ের শেখানো মন্ত্রটা আওড়াতে থাকে ইন্দু।যেই না মন্ত্রটা বলা পুরোটা, অমনি কী কাণ্ড কী কাণ্ড ! পান্নার লকেটটা থেকে সবুজ আলো ঠিকরে উঠলো। চারপাশটা যেন সবুজ আলোর বন্যায় ভেসে গেল। রাজকন্যে তাড়াতাড়ি চোখে হাতটা চাপা দিলেন। কিছুক্ষণ বাদে চোখ থেকে হাত সরিয়ে দেখেন, এক পরী দাঁড়িয়ে। কী সুন্দর, কী সুন্দর দেখতে তাকে। গায়ের রঙ শ্যামবর্ণ, সবুজ রেশমের মত চুল, পিঠের পালকের ডানা দুটোও গাঢ় সবুজ রঙের। আর চোখদুটো! যেন ওই লকেটের পান্নার দুটো টুকরো বসানো। ইন্দু তো অবাক হয়ে দেখতে থাকে তাঁকে। মুগ্ধতা কাটে যখন সেই পান্নাপরী সুরেলা গলায় বলে ওঠে, রাজকন্যে ইন্দুমতীহাজির পান্নাপরী,তোমার কষ্ট দূর করতেবলো না কী করি ? যে কথা মা বাবা দাদাভাই কাউকে বলতে পারেনি ইন্দুমতী সেই কথা ধীরে ধীরে বলে পান্নাপরীকে।  জানো পান্নাপরী, কাল বিকেলে সইদের সাথে রাজপ্রাসাদের বসন্তবাগানে খেলা করছিলাম। আমি, মন্ত্রীকন্যে অপালা, সেনাপতিকন্যে রুচিরা, আর মালীকন্যে রূপমতিয়া। রূপমতিয়া খুব ভালো জানো তো। ও রোজ আমাদের তিনজনের জন্য ফুল দিয়ে মালা বানিয়ে দেয়, মুকুট বানিয়ে দেয়। তাতে প্রজাপতির ডানা থেকে ঝরে পড়া রঙিন রেণু লাগিয়ে দেয়। কিন্তু ওর গায়ের রঙ আমাদের তিনজনের মত এর'ম সোনার বর্ণ নয়, আর ওর এরকম সোনা রুপো রেশম দিয়ে বানানো জামাও নেই। তাই তো অপালা, রুচিরা ওরা সব বললে, ওর সাথে খেলা নাকি চলবে না। ও কালো, ও গরিব। ও নাকি আমাদের বন্ধু নয়কো মোট্টে। পান্নাপরী মধুর হেসে বলে,  আচ্ছা ইন্দু আমিও তো তোমাদের মত তপ্ত কাঞ্চনবর্ণা নই। আমার গায়ে দেখো সোনা নয়, সবুজ পাতা আর ফুলের মালা। তাই বলে কি আমার সাথে তোমার বন্ধুত্ব করবে না?  আমি তো সব্বার সাথে বন্ধুত্ব করতেই চাই পান্নাপরী। তোমাকে, রূপমতিয়াকে, সব্বাইকে। কিন্তু ওরা যে বলল, রূপমতিয়াকে খেলতে নিলে ওরা সবাই ওদের বাবাদেরকে গিয়ে নালিশ করবে। তখন মন্ত্রীমশাই, সেনাপতিমশাই যদি আমার বাবাকে বলেন তাহলে বাবা তো রূপমতিয়াদের তাড়িয়ে দেবেন। তাই তো আমি কাউকে কিচ্ছু বলিনি। আমি কি করব পান্নাপরী আমায় বলে দাও।  ইন্দু তুমি কিচ্ছু চিন্তা কোরোনা। আমি আছি না মুশকিল আসান পান্নাপরী। তুমি এবার সব সখীদের নিয়ে খেলতে যাও দেখি, রূপমতিয়াকেও সঙ্গে নিও। তারপর দেখো আমি কী করি।  সত্যি পান্নাপরী ?! তুমি সব ঠিক করে দেবে ?  আমি মুশকিল আসানআমি পান্নাপরী কষ্ট সব গায়েব হবেদেখো জাদুকরী  "
    },
    {
        "title": "রাখাল ও পরীর গল্প",
        "details": "রাজকন্যা ইন্দুমতি এর গল্প(পার্ট-২)রাজকন্যে তো ভারী খুশি হয়ে নাচতে নাচতে চললেন বসন্ত বাগানে। অপালা, রুচিরা সব ওর অপেক্ষাতেই বসেছিল। দূরে এক কোণে রূপমতিয়া শুকনো মুখে দাঁড়িয়ে। বাগানের ভেতর আসার সাহস হয়নি সে বেচারার। রাজকন্যেকে হাসিমুখে আসতে দেখে ওরও মুখে হাসি ফুটল। রূপমতিয়ার হাতটি ধরে ইন্দু তাকে সবার মাঝে নিয়ে এল। ওকে দেখেই তো অপালা আর রুচিরার ভীষণ মুখ ভার। রাজকন্যেকে তারা বলে উঠলো, রাজকন্যে ইন্দু! আমরা কিন্তু কিছুতেই খেলব না ওর সাথে। তুমি বেছে নাও ওর সই হবে না কি আমাদের সই হবে। ইন্দু তো মনে মনে তখন পান্নাপরীকে স্মরণ করে চলেছে। এমন সময় হঠাৎ সারা বসন্তবাগান সবুজ আলোয় ভরে গেল। সবাই তো ভারী অবাক। একমাত্র ইন্দুই জানে এটা পান্নাপরীর আসার সংকেত। কিন্তু সবুজ আলোর রোশনাই কাটতে সবাই দেখে সামনে একটা থুত্থুড়ে বুড়ি দাঁড়িয়ে। চুলে তার কতদিনের জটা। দাঁতগুলো সব হলুদ। নখগুলো খোঁচা খোঁচা। হাতে একটা বাঁকা চোরা লাঠি। খনখনে গলায় হেসে উঠে বুড়ি বলে উঠলো আমি হলাম শ্যাওলা ডাইন আমি জলের তলায় থাকি,ছোট্ট ছোট্ট ছেলে মেয়েদেরদাস দাসী বানিয়ে রাখি।  এবার তো সকলেই এমনকি ইন্দুমতীও ভীষণ ভীষণ ভয় পেল। এ কী রে বাবা ! পান্নাপরী কই?! শ্যাওলা ডাইন বাঁকা লাঠিটায় ভর দিয়ে একপাক নেচে নিল। ইন্দুর হাতটা কপাৎ করে ধরে বলল, এই তো! এবার রাজকন্যে দাসী করব। আগামী এক বছরের জন্য আমার জলের তলার শ্যাওলা মহলে কাজ করবি তুই। ঘর ঝাড়পোঁছ করবি, রান্না করবি, বাসন মাজবি, কাপড় কাচবি, আমার গা হাত পা টিপে দিবি। শুনে তো রাজকন্যে কাঁদতে শুরু করল। কাজ করার কষ্টের চেয়েও তো বেশি কষ্ট হবে মা বাবা দাদাভাই কে ছেড়ে থাকতে। এ কীরকম হল! পান্নাপরী কোথায় গেল? সে যে তবে বলল সব সমস্যা দূর করবে। দুঃখে দু'চোখ বেয়ে জলের ধারা গড়ায় ইন্দুমতীর।অপালা রুচিরা ওরাও বলে উঠল, শ্যাওলা ডাইন তোমরা আমাদের সই রাজকন্যে কে ছেড়ে দাও দয়া করে। সোনা দানা মণি মুক্তো হীরে জহরৎ যা চাইবে সব দেব। শুধু ইন্দুকে ছেড়ে দাও। খ্যানখ্যান করে হেসে উঠে ডাইনিবুড়ি বলল, আমার বাড়ির ঝি তাহলে কে হবে শুনি? এই যে মেয়ে তবে রাজকন্যের বদলে তুই চল এক বছরের জন্য। অপালা ওমনি ঘাবড়ে পিছিয়ে গিয়ে মাথা নেড়ে বলে, না না তা কী করে হয়! আমি ওসব কাজ পারিনে মোটেও।  তাহলে তুই চল!  রুচিরার দিকে ফিরে বলে শ্যাওলা ডাইন।রুচিরাও অপালার মতই বলে ওঠে, আমি মা বাবাকে ছেড়ে অতদিন কিছুতেই থাকতে পারব না, কিছুতেই না। ডাইনিবুড়ি হলুদ হলুদ দাঁত বার করে, জটা নেড়ে, আরো জোরে হেসে বলে ওঠে, তোদের তিনটেকেই তবে নিয়ে যাই। আমাকে তাহলে আর তিন বছরের জন্য দাসী খুঁজতে হবে না। এই শুনে তো রুচিরা আর অপালা গলা ছেড়ে কাঁদতে শুরু করল। এমন সময় সবার অলক্ষ্যে থাকা রূপমতিয়া কখন যেন গুটিগুটি পায়ে সামনে এগিয়ে এসেছে। ধীর গলায় বলে সে, শ্যাওলা বুড়ি! ও শ্যাওলা বুড়ি। তুমি রাজকন্যে ইন্দুমতী, মন্ত্রীকন্যে অপালা আর সেনাপতিকন্যে রুচিরা, তিনজনকেই ছেড়ে দাও। তার বদলে আমাকে নিয়ে চলো তিন বছরের জন্য। আমি তোমার সঅঅঅব কাজ করে দেব। আমার এসব অব্যেস আছে। ওঁরা কি পারেন বলো এত্তসব কঠিন কাজ। আর ওঁরা চলে গেলে রাজ্যেরই বা কী হবে! ওঁদের মা বাবারা কেঁদে কেঁদেই যে সারা হবেন। তখন রাজ্য চলবে কী করে? আমি বরং একছুটে আমার বাবা মা কে সব জানিয়েই ফিরে আসছি। তারপর যেথায় বলবে, যতদিনের জন্য বলবে, আমি যাব। তুমি শুধু আমার সই-দের ছেড়ে দাও দয়া করে। ইন্দুমতী সহ বাকিরা অবাক চোখে চেয়ে রইল মালীর মেয়ের দিকে, যার না আছে ওদের মত সোনার বরণ অঙ্গ, না আছে অঙ্গ ভরা সোনার গহণা, না আছে সোনার জরিবোনা রেশমের জামা। কিন্তু আছে একটা সোনার মত নিখাদ নির্মল উজ্জ্বল মন।ইন্দুমতী বলে উঠল, দেখলি অপালা, দেখলি রুচিরা। শুনলি তোরা রূপমতিয়ার কথা। ওর মত বন্ধু ক'জনের আছে?! আর তোরা কীনা ওর সাথেই খেলতে চাইছিলি না। অপালা আর রুচিরার চোখের গড়িয়ে পড়া জল বলে দিল ওরা ওদের ভুলটা বুঝেছে আর মনে মনে খুব লজ্জা পেয়েছে। এগিয়ে এসে দুজনে রূপমতিয়ার দুটি হাত ধরে বলল, রূপমতিয়া বোন আমাদের। ক্ষমা করে দে আমাদের। আমরা আজ থেকে চারজন প্রাণের সই হলাম। রূপমতিয়া তো এদিকে লজ্জায় অস্থির। ইন্দুমতী তো ওর প্রাণের সই ছিলই, আরো দুই সই পেয়ে আজ তো রূপমতিয়া সবচেয়ে ধনী মানুষ সারা রাজ্যে।চারটে শিশু হাতে হাত দিয়ে খিলখিলিয়ে হেসে উঠল। ঘুরে ঘুরে নেচে নেচে গাইতে লাগল। আমরা চারটি সইহাসি গাই আর নাচি,সবাইকে বিলিয়ে খুশিআনন্দেতে বাঁচি। ভুলেই গেল যে শ্যাওলা ডাইনির মত বিপদ তাদের সামনে। সেদিকে খেয়াল পড়তেই সবাই ভয়ে ভয়ে তাকায়। কিন্তু কোথায় শ্যাওলা ডাইনি? তার জায়গায় দাঁড়িয়ে মিষ্টি একটা সবুজ ডানাওয়ালা পরী, পান্নাপরী। ইন্দুমতী তো দৌড়ে গিয়ে হাতটা ধরল পান্নাপরীর। বলে উঠল,  পান্নাপরী তুমিই তবে শ্যাওলা ডাইনির ছদ্মবেশ নিয়েছিলে? আমরা তো ভয়েই মরি। মিষ্টি হেসে নরম গলায় পান্নাপরী বলে, যাদের রূপমতিয়ার মত বন্ধু আছে, তাদের আবার ভয়টা কীসের শুনি। এবার থেকে তাহলে চার সখীতে মিলে মজা করে থাকো, কেমন? সবসময় মনে রাখবে সোনা-দানা, নাম-যশ, রূপ-রঙ এসব দিয়ে কিন্তু বন্ধুত্বের বিচার হয়না মোট্টে। আসল বন্ধু সেই যে প্রয়োজনে নিজের কথা ভুলে গিয়ে অন্যজনকে সাহায্য করতে এগিয়ে আসবে। তোমরা চারজন একে অপরের এবং রাজ্যের সকলের প্রকৃত বন্ধু হয়ে ওঠো। আর কোনো বিপদে পড়লে আমি তো আছিই। আজ তবে চলি কেমন? আমার কথাটি ফুরোলোনটে গাছটি মুড়োলচার সখী আর পান্নাপরী আহা! দেখে চক্ষু জুড়োলো। "
    },
    {
        "title": "লাল পরীর গল্প",
        "details": "নপুংসক বাদশার সন্তানের গল্প এক নপুংসক বাদশার তিন স্ত্রী ছিল। দরবেশের দেওয়া আনার খেয়ে সবারই সন্তান হলো। সন্তানরা যখন বড় হলো বাদশা অন্ধ হয়ে গেল। পর্বতবাসী অভিজ্ঞ এক বুড়ো বললো এর ওষুধ হলো পরীদের রানীর ঘোড়ার দুধ। ছেলেরা শুনতে পেয়ে যার যার মতো রওনা হলো। ছোট এবং হালকা গড়নের ছেলেটা দুর্বল একটা ঘোড়া পেল। তাতেই চড়ে সে অগ্রসর হয়ে গেল। যেতে যেতে গিয়ে উঠলো এক তেমুহনীতে। সেখানে লেখা ছিল একটি রাস্তা বেশ দূরের তবে নিরাপদ আর অপর পথটি হলো কাছের কিন্তু বিপদ-সঙ্কুল। বাদশার অন্য দুই ছেলে নিরাপদ পথ বেছে নিলো আর দুর্বল ছেলে বেছে নিলো বিপদপূর্ণ কাছের পথ। যাবার সময় সবাই একটি তলোয়ার পুঁতে রাখলো মাটির নীচে। বলা হলো যে আগে পৌঁছবে সে এই তলোয়ার নিয়ে যাবে। দুর্বল ছেলেটা বিপদের পথে অগ্রসর হয়ে পৌঁছলো এক গুহায়। সেখানে এক বুড়ির সাথে পরিচিত হলো। সেই বুড়ি বললো: আমি ওই পরীদের রানীর ধাইমা। পরীদের রানী এখন রূপকথার পাহাড়ে গেছে। বুড়ি ছেলের নিয়ত জেনে সিদ্ধান্ত নিলো তাকে সাহায্য করবে। বুড়ি বলেছিল: একটিমাত্র পথ আছে সেখানে যাবার। বুড়ি সেই পথটির কথা বললো এভাবে: এখানে কাছেই একটি ঝরনা আছে। প্রতিদিন সেখানে এক পাল ঘোড়া আসে। ঘোড়াগুলো এক এক করে ওই ঝর্ণাধারা থেকে পানি খায়। সবশেষে ঘোড়াটি বেশ দুর্বল এবং শুকনো। তুমি ওই ঘোড়াটিকে আটক করবে। যখন ওই ঘোড়া বাছুর দেবে এবং বড়ো হবে তখন তার পিঠে চড়বে। ওই ঘোড়ার পিঠে চড়েই তুমি যাবে রূপকথার পর্বতে। এছাড়া তুমি এইসব ঘোড়ায় চড়ে কোনোভাবেই ওই পাহাড়ে যেতে পারবে না। ছেলে দেখলো এ ছাড়া আর কোনো পথ খোলা নেই। সুতরাং কী আর করা! শেষ পর্যন্ত সে একাজ করতে রাজি হয়ে গেল। বুড়ি যখন দেখলো যে ছেলে রাজি, তাকে ঘোড়ার একটা লাগাম দিয়ে বললো: এটা ওই ঘোড়ারই লাগাম। যেভাবেই হোক ওর মুখে এই লাগাম লাগাতে হবে। বুড়ি আরও বললো: এখন থেকে চল্লিশ দিন পর ঘোড়ার বাচ্চা হবে। বাচ্চাটার খুব যত্ন নেবে। এই বাচ্চা দৈনিক এক বছরের সমান বড়ো হবে। সাতদিনের মাথায় তুমি ওই ঘোড়ায় চড়বে। ওই ঘোড়ার বাঁ কান মোচড়ালে ঘোড়া শূন্যে উড়বে আর ডান কান মোচড়ালে মাটিতে নেমে আসবে। পরীদের রানী চল্লিশ দিন ঘুমায় আর চল্লিশ দিন জেগে থাকে। এখন সে জেগে আছে। তুমি গিয়ে পৌঁছবে যখন তখন সে ঘুমে থাকবে। আর তুমি সহজেই তার ঘোড়া নিয়ে দুধ দুইতে পারবে এবং তোমার বাবার চোখে মাখতে পারবে। তবে সাবধান! পরীদের রানী যখন জাগবে, তোমার খোঁজে আসবে, তখন কী হবে জানি না। রূপকথার পাহাড়ে যাবার পুরো পথের ঠিকানা এবং যা যা করণীয় সবকিছুই বুড়ি ছেলেকে বলে দিলো। তারপর তিনটি আনার আর একটা আয়না দিয়ে বললো: এগুলো রাখো! কাজে আসবে। বাদশার ছেলে ওই রাতটা বুড়ির গুহাতেই কাটালো। সকালে গেল ঝরনার কাছে। বুড়ির কথামতো ওই ঘোড়াটিকে আটকালো এবং গুহায় নিয়ে গেল। চল্লিশ দিন ঘোড়ার ভালো করে যত্নআত্তি করলো। যথাসময়ে তার বাচ্চাও হলো। সাতদিনেই বুড়ির কথামতো বাচ্চা ঘোড়াটি সাত বছরের ঘোড়ার মতো হৃষ্টপুষ্ট হয়ে উঠলো। সপ্তম দিনে শাহজাদা ঘোড়ার পিঠে চড়লো এবং বাঁ কান মোচড়াতেই ঘোড়া শূন্যে উড়তে শুরু করলো। উড়তে উড়তে ঘোড়া গিয়ে পৌঁছে গেল সেই রূপকথার পাহাড়ে। শাহজাদা ঘোড়ার ডান কান মোচড়াতেই সে পাহাড়ের ওপর একটা দুর্গের কাছে মাটিতে নেমে গেল। শাহজাদার মনে বিন্দুমাত্র ভয়-ডর নেই। সে সোজা চলে গেল কেল্লার ভেতর। কেল্লা বটে। দেখামাত্রই যে-কেউ বেহুশ হয়ে পড়ার কথা। কিন্তু শাহজাদা নির্বিঘ্নে কেল্লার ভেতরের সবকিছু দেখতে দেখতে গিয়ে পৌঁছলো এক ঝরনার কাছে। অপেক্ষা করতে করতে একসময় পরীদের রানীর মাদি ঘোড়া এসে পৌঁছলো। বুড়ির কথামতো শাহজাদা আয়নাটা ওই ঘোড়ার সামনে ধরলো। আয়নার ভেতর নিজেদের দেখতে পেয়ে ঘোড়া বলে উঠলো: বাহ বাহ! কী সুন্দর আমি। একটা জিন আর লাগাম যদি পরতে পারতাম তাহলে তো আরও সুন্দর লাগতো। শাহজাদা সাথে সাথে বুড়ির দেওয়া জিন আর লাগাম বের করে ঘোড়ার পিঠে আর মুখে পরিয়ে দিলো। এবার ঘোড়া বললো: যদি একজন সওয়ার এখন আমার পিঠের জিনে বসতো। শাহজাদা দেরি না করে ঘোড়ার পিঠে চড়ে বসলো এবং চলতে শুরু করলো। ঘোড়া এমনভাবে দৌড়তে লাগলো যে বোঝা গেল কেমন পাগলাঘোড়া সে। শাহজাদা ওই পাগলাঘোড়ার সামনে খানিক দূরত্বে একটা আনার ছুঁড়ে মেরে বললো: আমি মানব। তুমি যদি আবারো এরকম পাগলামো করো তাহলে এই আনারের মতো করে তোমার মগজ বের করে আনবো। কিছুক্ষণ ভালোই দৌড়লো ঘোড়া। কিন্তু ধীরে ধীরে আবারও সে পাগলামো শুরু করে দিলো। এবার শাহজাদা দ্বিতীয় আনারটা ছুঁড়ে মারলো তার সামনে। ঘোড়া এবারও কিছুটা দমলো তবে বেশিক্ষণ না। কিছুক্ষণ পরেই পুনরায় সে পাগলামো শুরু করলো। শাহজাদা তৃতীয় আনারটাও ছুঁড়ে মারলো। ঘোড়া এইবার লাইনে আসলো। যেতে যেতে ঘোড়া গিয়ে পৌঁছলো পরীদের রানীর কেল্লায়। শাহজাদা মনে মনে বললো: রূপকথার পাহাড়ে যেহেতু এসেই পড়েছি তাহলে পরীদের রানীকে একবার দেখে গেলে মন্দ হয় না। প্রতিদিন তো আর এখানে আসা হবে না! আমার বাবার প্রাসাদ তো নয়। সে ঠিকই গেল। দেখলো পরীদের রানী ঘুমোচ্ছে। কিন্তু পরীদের রানীর ওপর শাহজাদার নজর পড়তেই থ মেরে গেল সে। মনে মনে বললো: কেউ এরকম সুন্দর হতে পারে! আশ্চর্য! এরপর ঘোড়ায় চড়ে বসলো। যেভাবে বুড়ি তাকে নির্দেশনা দিয়েছিল সেভাবেই সে ফিরে গেল। যেতে যেতে যখন ওই সেই তেমুহনীতে পৌঁছলো-যেখান থেকে ভাইদের কাছ থেকে পৃথক হয়ে গিয়েছিল সে-মাটি খুঁড়ে দেখলো তলোয়ারটা সেখানেই পড়ে আছে, যেমন রেখে গিয়েছিল। তার মানে বোঝা গেল তার ভাইয়েরা এখনো ফেরে নি। শাহজাদা একাকি ফিরতে চায় নি বলে পায়ে হেঁটে রওনা হলো। যে পথে ভাইয়েরা গিয়েছিল, সে পথে। "
    },
    {
        "title": "নীল পরীর গল্প",
        "details": "এক রাজা ও টুনটুনি পাখি রাজার বাগানের কোণে টুনটুনির বাসা ছিল। রাজার সিন্দুকের টাকা রোদে শুকুতে দিয়েছিল, সন্ধ্যার সময় তার লোকেরা তারএকটি টাকা ঘরে তুলতে ভুলে গেল।টুনটুনি সেই চকচকে টাকাটি দেখতে পেয়ে তার বাসায় এনে রেখে দিলে, আর ভাবলে, ঈস! আমি কত বড়লোক হয়ে গেছি।রাজার ঘরে যে ধন আছে, আমার ঘরে সে ধন আছে! তারপর থেকে সে খালি এই কথাই ভাবে, আর বলে-রাজার ঘরে যে ধন আছেটুনির ঘরেও সে ধন আছে!রাজা তাঁর সভায় বসে সে কথা শুনতে পেয়ে জিগগেস করলেন, হ্যাঁরে? পাখিটা কি বলছে রে?সকলে হাত জোড় করে বললে, মহারাজ, পাখি বলছে, আপনার ঘরে যে ধন আছে, ওর ঘরেও নাকি সেই ধন আছে! শুনে রাজাখিলখিল করে হেসে বললেন, দেখ তো ওর বাসায় কি আছে?তারা দেখে এসে বললে, মহারাজ, বাসায় একটা টাকা আছে।শুনে রাজা বললেন, সে তো আমারই টাকা, নিয়ে আয় সেটা।তখুনি লোক গিয়ে টুনটুনির বাসা থেকে টাকাটি নিয়ে এল। সে বেচারা আর কি করে, সে মনের দুঃখে বলতে লাগল-রাজা বড় ধনে কাতরটুনির ধন নিলে বাড়ির ভিতর!শুনে রাজা আবার হেসে বললেন, পাখিটা তো বড় ঠ্যাঁটা রে! যা ওর টাকা ফিরিয়ে দিয়ে আয়।টাকা ফিরে পেয়ে টুনির বড় আনন্দ হয়েছে। তখন সে বলছে-রাজা ভারি ভয় পেলটুনির টাকা ফিরিয়ে দিল।রাজা জিগগেস করলেন, আবার কি বলছে রে?সভার লোকেরা বললে, বলছে যে মহারাজ নাকি বড্ড ভয় পেয়েছেন, তাই ওর টাকা ফিরিয়ে দিয়েছেন।শুনে তো রাজামশাই রেগে একেবারে অস্থির! বললেন, কি, এত বড় কথা! আন তো ধরে, বেটাকে ভেজে খাই!যেই বলা, অমনি লোক গিয়ে টুনটুনি বেচারাকে ধরে আনলে। রাজা তাকে মুঠোয় করে নিয়ে বাড়ির ভিতর গিয়ে রানীদের বললেন,এই পাখিটাকে ভেজে আজ আমাকে খেতে হবে!বলে তো রাজা চলে এসেছেন, আর রানীরা সাতজনে মিলে সেই পাখিটাকে দেখছেন।একজন বললেন, কি সুন্দর পাখি! আমার হাতে দাও তো একবার দেখি। বলে তিনি তাকে হাতে নিলেন। তা দেখে আবার একজনদেখতে চাইলেন। তাঁর হাত থেকে যখন আর-একজন নিতে গেলেন, তখন টুনটুনি ফসকে গিয়ে উড়ে পালাল।কি সর্বনাশ! এখন উপায় কি হবে? রাজা জানতে পারলে তো রা থাকবে না।এমনি করে তাঁরা দুঃখ করছেন, এমন সময় ব্যাঙ সেইখান দিয়ে থপ-থপ করে যাচ্ছে। সাত রানী তাকে দেখতে পেয়ে খপ করে ধরে ফেললেন, আর বললেন, চুপ চুপ! কেউ যেন জানতে না পারে। এইটেকে ভেজে দি,আর রাজামশাই খেয়ে ভাববেন টুনটুনিই খেয়েছেন!সেই ব্যাঙটার ছাল ছাড়িয়ে তাকে ভেজে রাজামশাইকে দিলে তিনি খেয়ে খুশি হলেন। তারপর সবে তিনি সভায় গিয়ে বসেছেন, আর ভাবছেন, এবারে পাখির বাছাকে জব্দ করেছি।অমনি টুনি বলছে-বড় মজা, বড় মজা,রাজা খেলেন ব্যাঙ ভাজা!শুনেই তো রাজামশাই লাফিয়ে উঠেছেন। তখন তিনি থুতু ফেলেন, ওয়াক তোলেন, মুখ ধোন, আরো কত কি করেন। তারপররেগে বললেন, সাত রানীর নাক কেটে ফেল।অমনি জল্লাদ গিয়ে সাত রানীক নাক কেটে ফেললে।তা দেখে টুনটুনি বললে-এই টুনিতে টুনটুনালসাত রানীর নাক কাটাল!তখন রাজা বললেন, আন বেটাকে ধরে! এবার গিলে খাব! দেখি কেমন করে পালায়!টুনটুনিকে ধরে আনলে।রাজা বললেন, আন জল!জল এল। রাজা মুখ ভরে জল নিয়ে টুনটুনিকে মুখে পুরেই চোখ বুজে ঢক করে গিলে ফেললেন। সবাই বললে, এবারে পাখি জব্দ!বলতে বলতেই রাজামশাই ভোক্ করে মস্ত একটা ঢেকুর তুললেন।সভার লোক চমকে উঠল, আর টুনটুনি সেই ঢেকুরের সঙ্গে বেরিয়ে এসে উড়ে পালালো।রাজা বললেন, গেল, গেল! ধর্ ধর্! অমনি দুশো লোক ছুটে গিয়ে আবার বেচারাকে ধরে আনলো।তারপর আবার জল নিয়ে এল, আর সিপাই এসে তলোয়ার নিয়ে রাজা মশায়ের কাছে দাঁড়াল, টুনটুনি বেরুলেই তাকে দু টুকরোকরে ফেলবে।এবার টুনটুনিকে গিলেই রাজামশাই দুই হাতে মুখ চেপে বসে থাকলেন, যাতে টুনটুনি আর বেরুতে না পারে। সে বেচারা পেটেরভিতরে গিয়ে ভয়ানক ছটফট করতে লাগল!খানিক বাদে রাজামশাই নাক সিঁটকিয়ে বললেন, ওয়াক্। অমনি টুনটুনিকে সুদ্ধ তাঁর পেটের ভিতরের সকল জিনিস বেরিয়েএল।সবাই বললে, সিপাই, সিপাই! মারো, মারো! পালালো!সিপাই তাতে থতমত খেয়ে তলোয়ার দিয়ে যেই টুনটুনিকে মারতে যাবে, অমনি সেই তলোয়ার টুনটুনির গায়ে না পড়ে,রাজামশায়ের নাকে পড়ল।রাজামশাই তো ভয়ানক চ্যাঁচালেন, সঙ্গে-সঙ্গে সভার সকল লোক চ্যাঁচাতে লাগল। তখন ডাক্তার এসে ওধুধ দিয়ে পটি বেঁধেঅনেক কষ্টে রাজামশাইকে বাঁচাল।টুনটুনি তা দেখে বলতে লাগল-নাক-কাটা রাজা রে।দেখ তো কেমন সাজা রে!বলেই সে উড়ে সে-দেশ থেকে চলে গেল। রাজার লোক ছুটে এসে দেখল, খালি বাসা পড়ে আছে। "
    },
    {
        "title": "সওদাগরের আমানত",
        "details": "বানর রাজপুত্র এর গল্প এক রাজার সাত রানী, কিন্ত ছেলেপিলে একটিও নাই। রাজার তাতে বড়ই দুঃখ; তিনি সভায় গিয়ে মাথা গুঁজে বসে থাকেন, কেউ এলে ভাল করে কথা কন না। একদিন হয়েছে কি-এক মুনি রাজার সঙ্গে দেখা করতে এসেছেন। মুনি রাজার মুখ ভার দেখে জিজ্ঞাসা করলেন, রাজা তোমার মুখ যে ভার দেখছি; তোমার কিসের দুঃখ?রাজা বললেন, সে কথা আর কি বলব, মুনি-ঠাকুর! আমার রাজ্য, ধন, লোকজন সবই আছে, কিন্ত আমার যে ছেলেপিলে নেই,আমি মরলে এ-সব কে দেখবে?মুনি বললেন, ঐ কথা? আচ্ছা, তোমার কোন চিন্তা নেই। কাল ভোরে উঠেই তুমি সোজাসুজি উত্তর দিকে চলে যাবে। অনেক দূর গিয়ে একটা বনের ধারে দেখবে একটাআমগাছ রয়েছে। সেই আমগাছ থেকে সাতটি আম এনে তোমার সাত রাণীকে বেটে খাইয়ে দিলেই, তোমার সাতটি ছেলে হবে।কিন্ত খবরদার, আম নিয়ে আসবার সময় পিছনের দিকে তাকিয়ো না যেন!এই কথা বলে মুনি চলে গেলেন। তারপর দিন গেল, রাত হল, ক্রমে রাত ভোর হল। তখন রাজামশাই তাড়াতাড়ি বিছানা থেকেউঠে সোজাসুজি উত্তর দিকে চলতে লাগলেন। যেতে যেতে অনেক দূর গিয়ে তিনি দেখলেন, সত্যি সত্যি বনের ধারে একটা আম গাছ আছে, তাতে পাকা সাতটি আমও দেখতে পাওয়া যাচ্ছে। সেই বনে তিনি কতবার শিকার করতে এসেছেন, কিন্ত আমগাছ কখনো দেখতে পাননি। যা হোক, তিনি তাড়াতাড়ি সেই গাছে উঠে আম সাতটি পেড়ে নিয়ে বাড়িতে ফিরে চললেন।খানিক দূর যেতে না যেতেই শুনলেন, কে যেন পিছন থেকে তাঁকে ডাকছে,ওগো রাজা ফিরে চাও,আরো আম নিয়ে যাও।মুনি যে সাবধান করে দিয়েছিলেন, সে কথা রাজার মনে ছিল না। তিনি পিছন দিক থেকে ডাক শুনেই ফিরে তাকিয়েছেন, আর অমনি আমগুলো তাঁর হাত থেকে ছুটে গিয়ে আবার গাছে ঝুলতে লেগেছে। কাজেই রাজামশাই-এর আবার গিয়ে গাছে উঠে আমগুলি পেড়ে আনতে হল। এবার আর তিনি কিছুতেই মুনির কথা ভুললেন না।তিনি চলে আসবার সময় পিছন থেকে তাঁকে কতরকম করে ডাকতে লাগল, চোর চোর বলে কত গালও দিল। রাজামশাই তাতে কান না দিয়ে বোঁ বোঁ করে বাড়ি পানে ছুটলেন।বাড়ি এসে রাণীদের হাতে সাতটি আম দিয়ে রাজামশাই বললেন, তোমরা সাতজনে এই সাতটি আম বেটে খাও।ছোটরানী তখন সেখানে ছিলেন না। বড় রাণীরা ছজনে মিলে তাঁকে কিছু না বলেই সব কটি আম খেয়ে ফেললেন। ছোটরানী এর কিছুই জানতে পারলেন না, কিন্তু তাঁর ঝি সব দেখল। বড় রাণীদের খাওয়া শেষ হয়ে গেলে সে আমের ছালগুলি চুপিচুপি কুড়িয়ে নিয়ে গেল। সেই ছালগুলো ধুয়ে বেটে ছোটরাণীর হাতে দিয়ে বলল, মা, এই ওষুধটা খাও, তোমার ভাল হবে। ওষুধ খেতে হয়, তাই ছোটরাণী আর কোন কথা না বলেই সেটা খেয়ে ফেললেন।তারপর বড় রাণীদের সকলেরই এক-একটি সুন্দর খোকা হল, রাজা তাতে খুশি হয়ে খুব ধুমধাম আর গানবাজনা করালেন।ছোটরানীরও একটি খোকা হল, কিন্ত সেটি হল বানর। বানর দেখে রাজা চটে গিয়ে ছোটরাণীকে বাড়ি থেকে তাড়িয়ে দিলেন। দেশের লোকের তাতে বড়ই দুঃখ হল। তারা একটি কুঁড়ে বেঁধে ছোটরাণীকে বলল, মা তুমি এইখানে থাকে।সেইখানে ছোটরাণী থাকেন। বানরটি সেখানে থেকে দিন দিন বড় হচ্ছে। সে মানুষের মত কথা কয়। আর তার এমনি বুদ্ধি যে, কোন কথা তাকে শিখিয়ে দিতে হয় না।যখন যে কাজের দরকার, অমনি সে তা করে। সারাদিন সে গাছে গাছে ঘুরে বেড়ায়, যেখানে যে ফল দেখে তা খায়; খুব ভাল লাগলে মার জন্য নিয়ে আসে। তাকে কেউ কিছু বলে না, কারুর গাছের ফল খেতে গেলে সে ভারি খুশি হয় ভাল ভাল ফল দেখিয়ে দেয়। তার বুদ্ধি দেখে সকলে আশ্চর্য হয়ে যায়।এমনি করে দিন যাচ্ছে। বড় রাণীদের ছটি ছেলেও এখন বড় হয়েছে। তারা বানরটিকে যারপর নাই হিংসা করে, সে তাদের সঙ্গে খেলা করতে গেলে তাকে মেরে তাড়িয়ে দেয়।তারপর একদিন বানরটি দেখল যে, বড় রাণীদের ছেলেদের জন্য মাস্টার এসেছে, তারা পুঁথি নিয়ে তার কাছে বসে পড়ে। তা দেখে বানর গিয়ে তার মাকে বলল, মা, আমাকে পুঁথি এনে দাও, আমি পড়ব।মা কাঁদতে কাঁদতে বললেন , হায় বাছা, কি করে পড়বে? তুমি যে বানর।বানর বলল, সত্যি মা, আমি পড়ব; তুমি বই এনেই দিয়েই দেখো। তুমি আমাকে পড়াবে।বানরের এমনি বুদ্ধি, যে বই পায় সে দুদিনে পড়ে শেষ করে ফেলে। সে দু বছরে মস্ত পণ্ডিত হয়ে উঠল। বড় রাণীদের ছেলেরা তখনো দু-তিনখানি বই-পুঁথি শেষ করতে পারেনিঃ রোজ খালি মাস্টারের বকুনি খায়।এ-সব বকুনি শুনে রাজা একদিন বললেন, বটে? বানরের এমনি বুদ্ধি? নিয়ে এসো তো তাকে, আমি দেখব।বানরের কিছুতেই ভয় নেই। রাজা ডেকেছেন শুনে সে অমনি তাঁর কাছে উপস্থিত হল। তাকে দেখে আর তার কথাবার্তা শুনে রাজার এমনি ভাল লাগল যে, তিনি আর কিছুতেই ছোটরানীকে কুঁড়েঘরে ফেলে রাখতে পারলেন না। বাড়িতে আনতেও ভরসা পেলেন না, পাছে বড় রাণীরা কিছু বলেন।তাই তিনি ছোটরাণীকে রাজবাড়ির পাশেই একটি খুব সুন্দর বাড়ি করে দিলেন। সেই বাড়িতে তখন থেকে ছোটরাণী তাঁর বানর নিয়ে থাকেন। টাকাকড়ি যত লাগে রাজার লোক এসে দিয়ে যায়। লোকে তাঁর বাড়িটাকে বলে বানরের বাড়ি। এ সব দেখে বড় রাণীদের ছেলেরা বানরকে আরো বেশী হিংসা করতে লাগল।একটু একটু করে ছেলেরা বড় হয়ে উঠল। সকলে রাজাকে বলল, রাজপুত্রেরা বড় হয়েছেন, এখন এদের বিয়ে দিন।রাজা বললেন, তাদের দেশ বিদেশ ঘুরতে দাও। তারা নানান জায়গা দেখে, নানারকম শিখে, টুকটুকে ছয়টি রাজকন্যা বিয়ে করে আনুক।সকলে বলল, বেশ বেশ! তাই হোক।তারপর ছয় রাজপুত্র সেজেগুজে, টাকাকড়ি সঙ্গে নিয়ে ঘোড়ায় চড়ে নানান দেশ দেখতে বেরুল। তা দেখে বানর তার মাকে গিয়ে বলল, মা, আমিও যাব।তার মা বললেন, তুমি কি করতে যাবে, জাদু? তোমাকে কোন টুকটুকে রাজকন্যা বিয়ে করবে?বানর বলল, মা, আমি অনেক দেশ দেখতে পাব।মা বললেন, তুমি যে দেশ দেখতে যাবে, আমি তোমাকে ছেড়ে কি করে থাকব?বানর বলল, আমি দেখতে দেখতে ফিরে আসব। তোমার পায়ে পড়ি মা, আমাকে যেতে দাও।কাজেই ছোটরানী আর কি করেন? বানরকে যেতে দিতেই হল।ছয় রাজপুত্র ঘোড়ায় চড়ে যাচ্ছে; রাজবাড়ি থেকে অনেক দূর চলে এসেছে। একটা বনের ভিতর দিয়ে তাদের পথ, সেই পথচলতে চলতে তাদের নানারকম কথাবার্তাহচ্ছে, এমন সময় বনের ভিতর থেকে বানর বেরিয়ে এসে বলল, দাদা, আমিও এসেছি, আমাকে সঙ্গে নিয়ে চলো।তাতে রাজপুত্রেরা যার পর নাই রেগে বলল, বটে রে, তোর এতবড় আস্পর্ধা! আমরা রাজকন্যা বিয়ে করে আনতে যাচ্ছি বলে তুইও তাই করতে যাবি! দাঁড়া, তোকে দেখাচ্ছি! এই বলে তারা বানরকে মারতে মারতে আধমরা করে একটা গাছে বেঁধে রেখে চলে গেল।সেইবনে ছিল একদল ডাকাত। তারা দেখল যে ছয়জন রাজপুত্র ভারি সাজ করে টাকাকড়ি নিয়ে ঘোড়ায় চড়ে যাচ্ছে। দেখেই ত তারা মার-মার করে চারদিকে থেকেতাদের ঘিরে ফেলল। রাজপুত্রেরা ভয়েই জড়সড়, তলোয়ার খুলবার কথা আর তাদের মনেই নেই। তাদের টাকাকড়ি, ঘোড়া, পোশাক-সবসুদ্ধ তাদের হাত-পা বেঁধে নিয়েযেতে তাদের দু মিনিটও সময় লাগল না।রাজপুত্রদের ধরে নিয়ে খানিক দূরে এসেই ডাকাতেরা দেখল, পথের ধারে একটা বানর বাঁধা রয়েছে। তাকেও তারা সঙ্গে নিয়েচলল। বানর যেন তাতে বেশ খুশি হয়ে লাফিয়ে লাফিয়ে তাদের সঙ্গে যেতে লাগল। তা দেখে ডাকাতেরা ভাবল, বুঝি কারু পোষা বানর, কাজেই তাকে আর তারা তেমন করে বাঁধল না।সেই বনের ভিতরই ডাকাতদের ঘর। সেদিন তাদের বড্ড পরিশ্রম হয়েছিল, তাই রাজপুত্রদের নিয়ে স্যার সময় ঘরে ফিরে এসে বাঁধনসুদ্ধই ছটি ভাইকে একটা জায়গায় ফেলে রেখে তারা খাওয়া-দাওয়া করে ঘুমিয়ে পড়ল। যখন খুব করে তাদের নাক ডাকতে লেগেছে,তখন বানর চুপিচুপি তার নিজের বাঁধন দাঁত দিয়ে কেটে তাড়াতাড়ি গিয়ে রাজপুত্রদের বাঁধন খুলে দিয়েছে। তখন আর তারা বানরকে ফেলে যাবে কোন লাজে? কাজেই তাকেও সঙ্গে করে,জিনিসপত্র নিয়ে, ঘোড়ায় চড়ে অমনি তারা প্রাণপণে ছুট দিল, ডাকাতেরা কিছু টের পেল না।ডাকাতদের ওখান থেকে পালিয়ে রাজপুত্রেরা প্রাণপণে ঘোড়া ছুটিয়ে যেতে লাগল, ভোরের আগে আর তারা কোথাও থামল না।সকালে তারা দেখল যে, তারা ভারি চমৎকার একটা শহরে এসে উপস্থিত হয়েছে। সে খুব বড় এক রাজার দেশ; তাঁর বাড়ি দূর থেকে দেখা যাচ্ছে, যেন একটা ঝকঝকে সাদা পাহাড়।ছয় রাজপুত্র সেই বাড়ির কাছে গিয়েই টকটক করে ঘোড়া হাঁকিয়ে তার ভিতরে ঢুকে পড়ল। দারোয়ানেরা তাদের পোষাক আর ঘোড়ার সাজ দেখে জড়সড় হয়ে দাঁড়িয়ে তাদের সেলাম করল, আর কিছু বলল না। বানর কিন্ত জানে যে, সে সেখানে গেলেই তাকে ধরে ফেলবে, তাই সে রাজবাড়ির পিছনের দিকে গিয়ে, খিড়কির পুকুরের ধারে শুয়ে রইল।সেই দেশের রাজারও ছিল সাত রাণী। তাদের বড় ছজন ছিল ভারি হিংসুক আর দেখতে বিশ্রী, আর ছোটটি ছিলেন পরীর মত সুন্দর আর বড় লক্ষী। বড়রা রাজাকে মিছমিছি নানান কথা বলে, ছোটরাণীকে ঘর থেকে তাড়িয়ে দিয়েছিল; তিনি খিড়কির পুকুরের ধারে একটি কুঁড়ের ভিতরে থাকতেন, রাজা তাঁর কোন খবরও নিতেন না।বড় ছয় রাণীর ছটি মেয়ে ছিল, তারা দেখতে ছিল ঠিক তাদের মায়ের মতন, আর তাদের মনও ছিল তেমনি। আর ছোটরাণীর যে মেয়েটি ছিল, সেও ছিল ঠিক তার মার মত-তেমনি সুন্দর, তেমনি লক্ষী। তা হলে কি হয়, বড় রাণীরা রাজাকে বুঝিয়ে বুঝিয়ে দিয়েছিল যে, ছোটরাণীর মেয়েটা পাগল, কালো, কুঁজো, কানা, খোঁড়া, কালা আরবোবা।সেই খিড়কির পুকুরের ধারে, সেই ছোটরানীর কুঁড়েরঘরের কাছে বানর গিয়ে শুয়ে রয়েছে। খানিক বাদে বড় রাণীদের ছয় মেয়ে ছটি ঘটি নিয়ে সেখানে স্নান করতে এল,ছোটরাণীর মেয়েটিও তার ছোট ঘটিটি নিয়ে এল। তারা স্নান করে চলে আসবার সময় সেই মেয়েটির ঘটি থেকে কেমন করে খানিকটা জল বানরের গায়ে পড়ে গেল,অমনি বড়রাণীদের ছয় মেয়ে হাততালি দিয়ে চেঁচিয়ে বলতে লাগল, ওম! তোমরা দেখো এসো-ছোটরাণীর মেয়ে বাদরটিকে বিয়ে করেছে।বড়রাণীরাও তা শুনে ছুটে এসে বলতে লাগল,তাই ত,তাই ত। ছোটরানীর মেয়ে বানরটাকে বিয়ে করেছে। সেই খবর তখুনি তারারাজার কাছে পাঠিয়ে দিল। দেশের সকল লোক রাজার সভায় বসে শুনল যে, ছোটরানীর মেয়ের একটা বানরের সঙ্গে বিয়ে হয়েছে। ছোটরানীর মনে কি কষ্ট হল, তা আর কি বলব? তিনি খাওয়া দাওয়া ছেড়ে দিয়ে মেয়েটিকে বুকে নিয়ে মাটিতে পড়ে কাঁদতে লাগলেন। তা দেখে বানর তাঁদের ঘরের দরজায় এসে বাইরে থেকে হাত জোঁর করে বলল, মা, আপনি কাঁদবেন না। ভগবান যা করেন ভালই করেন। এ থেকেও আপনাদের ভাল হতে পারে। বানরকে মানুষের মত কথা কইতে দেখে রানী উঠে বসলেন। তাঁর মনের দুঃখ যেন কোথায় চলে গেল। সেই থেকে বানর তাঁর ঘরের কাছে গাছের উপর থাকে আর প্রাণপণে তাঁর সেবা করে। রানী যখন শুনলেন যে, সে রাজপুত্র, তখন সে যে বানর, সে কথা তিনি ভুলে গেলেন। তাঁর মনে হল যে এমনি ভাল আর বুদ্ধিমান লোক আর মানুষের ভিতরে নাই।।এদিকে হয়েছে কি, সেই ছয় রাজপুত্রও রাজার বাড়িতে ঢুকে একেবারে তার সভায় এসে হাজির হয়েছে। রাজা দেখেই বুঝতে পেরেছেন, এরা রাজপুত্র। তিনি জিজ্ঞাসা করলেন, বাপু, তোমরা কে? কি করতে এসেছ? তারপর যখন তাদের বাপের নাম শুনলেন যে তারা বিয়ে করবার জন্য রাজকন্যা খুঁজতে বেরিয়েছে, তখন তাঁর আর খুশির সীমাই রইল না। তিনি বললেন, বাঃ! তোমরা যে আমার বন্ধুর ছেলে। বেশ হল; আমার ছ মেয়েকে তোমরা ছজনে বিয়ে করবে।ঠিক এমনি সময় বাড়ির ভিতর থেকে খবর এল যে, ছোটরানীর মেয়ের একটা বাঁদরের সঙ্গে বিয়ে হয়েছে। রাজপুত্ররাও তখনি বুঝে নিল যে এ আর কেউ নয়, তাদেরই বাঁদর। তাদের মনে হিংসেটা যে হল। বাঁদর এসে তাঁদের আগেই রাজার মেয়ে বিয়ে করে ফেলল। লোকে আবার কানাকানি করে বলে যে সে মেয়ে নাকি রাজার আর ছয় মেয়ের চেয়ে ঢের বেশি সুন্দর আর ভাল-এ সব কথা তারা যত ভাবে, ততই খালি হিংসায় জ্বলে মরে।যা হোক রাজার ছয় মেয়ের সঙ্গে তা তাদের বিয়ে হয়ে গেল, তারপর ঝকঝকে ময়ূরপঙ্খী সাজিয়ে ঢাক ঢোল বাজিয়ে তারা বউনিয়ে দেশে চলল। বানরও একটি ছোট নৌকায় করে তার স্ত্রীকে নিয়ে তাদের পিছু পিছু চলেছে। তাকে দেখেই ছয় রাজপুত্র রেগে ভূত হয়ে গেছে আর ভেবেছে যে, একে বউ নিয়ে দেশে ফিরতে দেওয়া হবে না। মুখে কিন্তু ভাই, ভাই বলে ভারি আদর দেখাতে লাগল, যেন তাকে কতই ভালবাসে। শেষে যখন বাড়ির কাছে এসেছে, তখন রাত্রে ঘুমের ভিতরে বেচারার হাত-পা বেঁধে তাকে জলে ফেলে দিল। ভাগ্যিস ছোট বউ টের পেয়ে তাড়াতাড়ি একটা বালিশ ফেলে দিয়েছিল, আর তাই ধরে অনেক কষ্টে সে কোনমতে ডাঙায় উঠল, নইলে সে যাত্রা আর উপায়ই ছিল না।তারপর সকালবেলায় নৌকা এসে ঘাটে লাগল, রাজা খবর পেয়ে ছেলে বউদের আদর করে ঘরে নিতে এলেন। ছয় ছেলে এসেতাঁকে প্রণাম করল, রাজা তাদের জিজ্ঞেস করলেন, আমার বানর কই? তারা বলল, সে জলে ডুবে মারা গিয়েছে।বানর ত মরে নি, সে নদীর ধারে ধারে তাদের আগেই ঘাটে এসে গাছের আড়ালে লুকিয়ে ছিল। ওরা সে জলে ডুবে মারা গেছে বলতেই বানর আড়াল থেকে বেরিয়ে এসে রাজাকে প্রণাম করে বলল, আমি মরিনি বাবা, ওরা আমার হাত-পা বেঁধে আমাকে জলে ফেলে দিয়েছিল, আমি অনেক কষ্টে বেঁচে এসেছি।তখন ত রাজপুত্রদের মুখ চুন। রাজা ভয়ানক রেগে তাদের বললেন, বটে। তোদের এই কাজ? দূর ত তোরা আমার দেশ থেকে।আর তোদের মুখ দেখব না।এই বলে দুষ্টু ছেলেগুলিকে তাড়িয়ে দিয়ে রাজার যার পর নাই আদরের সহিত বানর আর ছোট বউকে ঘরে নিয়ে এলেন। বানরেরমা ছেলেকে ফিরে পেয়ে আর এমন সুন্দর লক্ষী বউ ঘরে এনে যে কত সুখী হলেন তা বুঝতেই পার।তারপর খুব সুখেই তাঁদের দিন কাটতে লাগল। এর মধ্যে হয়েছে কি, বউমা দেখলেন যে বানর শুধু দিনের বেলায়ই বানর সেজে বেড়ায়; রাত্রে সে বানরের ছাল খুলে ফেলে দেবতার মত সুন্দর মানুষ হয়। এ কথা তিনি ছোটরানীকে বললেন, ছোটরানী আবার রাজাকে জানালেন। রাজা ত শুনে ভারি আশ্চর্য হয়ে এসে বললেন, বউমা,তুমি এক কাজ করো। আজ রাত্রে যখন সে বানরের ছাল খুলে ঘুমোবে, তখন তুমি সেই ছালটাকে পুড়িয়ে ফেলবে।সেদিন বানরের শোবার ঘরের পাশের ঘরে মস্ত আগুন জ্বেলে রাখা হল, বানর তা জানতে পেল না। তারপর রাত্রে যেই ছাল খুলেরেখে সে ঘুমিয়েছে, অমনি রাজকন্যাচুপিচুপি নিয়ে সেটাকে সেই আগুনে ফেলে দিয়েছেন। সকালে বানর উঠে দেখে, তার ছাল নেই। তখন সে ত ধরা পড়ে গিয়ে খুবইব্যস্ত হল, কিন্তু ব্যস্ত হয়ে কি হবে, আরবানর হবার জো নেই। দেখতে দেখতে সেই খবর দেশময় ছড়িয়ে পড়ল, আর ছেলেবুড়ো সকলে ছুটে এসে, সব শুনে ধেই ধেই করে নাচতে লাগল।"
    },
    {
        "title": "রাজা ও রাজকন্যা এর গল্প",
        "details": "ঘুমন্ত পুরীর গল্প এক দেশের এক রাজপুত্র। রাজপুত্রের রূপে রাজপুরী আলো। রাজপুত্রের গুণের কথা লোকের মুখে ধরে না।একদিন রাজপুত্রের মনে হইল, দেশভ্রমণে যাইবেন। রাজ্যের লোকের মুখ ভার হইল, রাণী আহার-নিদ্রা ছাড়িলেন, কেবল রাজা বলিলেন,-আচ্ছা, যাক্।তখন দেশের লোক দলে-দলে সাজিল,রাজা চর-অনুচর দিলেন,রাণী মণি-মাণিক্যের ডালা লইয়া আসিলেন।রাজপুত্র লোকজন, মণি-মাণিক্য চর অনুচর কিছুই সঙ্গে নিলেন না। নূতন পোশাক পরিয়া, নূতন তলোয়ার ঝুলাইয়া রাজপুত্র দেশভ্রমণে বাহির হইলেন। যাইতে যাইতে যাইতে, কত দেশ, কত পর্বত, কত নদী, কত রাজার রাজ্য ছাড়াইয়া, রাজপুত্র এক বনের মধ্যে দিয়া উপস্থিত হইলেনদেখিলেন, বনে পাখ-পাখালীর শব্দ নাই, বাঘ-ভালুকের সাড়া নাই!-রাজপুত্র চলিতে লাগিলেন।চলিতে চলিতে, অনেক দূর গিয়া রাজপুত্র দেখিলেন, বনের মধ্যে এক যে রাজপুরী-রাজপুরীর সীমা। অমন রাজপুরী রাজপুত্র আর কখনও দেখেন আই। দেখিয়া রাজপুত্র অবাক হইয়া রহিলেন।রাজপুরীর ফটকের চূড়া আকাশে ঠেকিয়াছে। ফটকের দুয়ার বন জুড়িয়া আছে। কিন্তু ফটকের চূড়ায় বাদ্য বাজে না, ফটকের দুয়ারে দুয়ারী নাই।রাজপুত্র আস্তে আস্তে রাজপুরীর মধ্যে গেলেন।রাজপুরীর মধ্যে গিয়া দেখিলেন, পুরী যে পরিস্কার, যেন দুয়ে ধোয়া,-ধব্ ধব্ করিতেছে। কিন্তু এমন পুরীর মধ্যে জন-মানুষ নাই, কোন কিছুই সাড়া-শব্দ পাওয়া যায় না, পুরী নিভাজ, নিঝুম,-পাতাটি পড়ে না, কুটাটুকু নড়ে না।রাজপুত্র আশ্চর্য হইয়া গেলেন।রাজপুত্র এদিক দেখিলেন, ওদিক দেখিলেন পুরীর চারিদিকে দেখিতে লাগিলেন। এক জায়গায় গিয়া রাজপুত্র থমকিয়া গেলেন! দেখিলেন, মস্ত আঙ্গিনা, আঙ্গিনা জুড়িয়া হাতী, ঘোড়া, সেপাই, লস্কর, দুয়ারী, পাহারা, সৈন্য-সামন্ত সব সারি সারি দাঁড়াইয়া রহিয়াছে।রাজপুত্র হাঁক দিলেন।কেহ কথা কহিল না,কেহ তাঁহার দিকে ফিরিয়া দেখিল না।অবাক হইয়া রাজপুত্র কাছে গিয়া দেখিলেন, কাতারে কাতারে সিপাই, লস্কর, কাতারে কাতারে হাতী ঘোড়া সব পাথরের মূর্তি হইয়া রহিয়াছে। কাহারও চে পলক পড়ে না কাহারও গায়ে চুল নড়ে না। রাজপুত্র আশ্চর্য হইয়া দাঁড়াইয়া রহিলেন।তখন রাজপুত্র পুরীর মধ্যে গেলেন।এক কুঠরিতে গিয়া দেখিলেন, কুঠরির মধ্যে কত রকমের ঢাল তলোয়ার, তীর, ধনুক সব হাজারে হাজারে টানানো রহিয়াছে। পাহারারা পাথরের মূর্তি, সিপাইরা পাথরের মূর্তি। রাজপুত্র আপনার তলোয়ার খুলিয়া আস্তে আস্তে চলিয়া আসিলেন।আর এক কুঠরিতে গিয়া দেখিলেন, মস্ত রাজদরবার, রাজদরবারে সোনার প্রদীপে ঘিয়ের বাতি জ্বল্ জ্বল্ করিতেছে, চারিদিকে মণি-মাণিক্য ঝক্ঝক্ করিতেছে। কিন্তু রাজসিংহাসনে রাজা, পাথরের মূর্তি, মন্ত্রীর আসনে মন্ত্রী পাথরের মূর্তি, পাত্র-মিত্র, ভাট বন্দী, সিপাই লস্কর যে যেখানে, সে সেখানে পাথরের মূর্তি। কাহারও চক্ষে পলক নাই, কাহারও মুখে কথা নাই।রাজপুত্র দেখিলেন, রাজার মাথায় রাজছত্র হেলিয়া আছে, দাসীর হাতে চামর ঢুলিয়া আছে,-সাড়া নাই, শব্দ নাই, সব ঘুমে নিঝুম। রাজপুত্র মাথা নোয়াইয়া চলিয়া আসিলেন।আর এক কুঠরীতে গিয়া দেখিলেন, যেন কত শত প্রদীপ একসঙ্গে জ্বলিতেছে-কত রকমের ধন-রত্ন, কত হীরা, কত মাণিক, কত মোতি,-কুঠরিতে আর ধরে না। রাজপুত্র কিছু ছুঁইলেন না; দেখিয়া আর এক কুঠরিতে চলিয়া গেলেন।সে কুঠরিতে যাইতে-না-যাইতে হাজার হাজার ফুলের গন্ধে রাজপুত্র বিভোগ হইয়া উঠিলেন। কোথা হইতে এমন ফুলের গন্ধ আসে? রাজপুত্র কুঠরির মধ্যে গিয়া দেখিলেন, জল নাই টল নাই, কুঠরির মাঝখানে লাখে লাখে পদ্মফুল ফুটিয়া রহিয়াছে! পদ্মফুলের গন্ধে ঘর ম-ম করিতেছে। রাজপুত্র ধীরে ধীরে ফুলবনের কাছে গেলেন।ফুলবনের কাছে গিয়া রাজপুত্র দেখিলেন, ফুলের বনে সোনার খাঁট, সোনার খাটে হীরার ডাঁট, হীরার ডাঁটে ফুলের মালা দোলান রহিয়াছে; সেই মালার নিচে, হীরার নালে সোনার পদ্ম, সোনার পদ্মে এক পরমা সুন্দরী রাজকন্যা বিভোরে ঘুমাইতেছেন। ঘুমন্ত রাজকন্যার হাত দেখা যায় না, পা দেখা যায় না, কেবল চাঁদের কিরণ মুখখানি সোনার পদ্মের সোনার পাঁপড়ির মধ্যে টুল্-টুল্ করিতেছে। রাজপুত্র ঝালর হীরার ডাঁটে ভর দিয়া, অবাক হইয়া দেখিতে লাগিলেন। দেখিতে দেখিতে, দেখিতে, দেখিতে, কত বচ্ছর চলিয়া গেল। রাজকন্যার আর ঘুম ভাঙ্গে না, রাজপুত্রের চক্ষে আর পলক পড়ে না। রাজকন্যা অঘোরে ঘুমাইতেছেন রাজপুত্র বিভোর হইয়া দেখিতেছেন।চাঁদের কিরণ মুখখানি সোনার পদ্মের সোনার পাপ্ড়ির মধ্যে টুল্টুল্ রাজকন্যার আর ঘুম ভাঙ্গে না, রাজপুত্রের চক্ষে আর পলক পড়ে না।হঠাৎ একদিন রাজপুত্র দেখিলেন, রাজকন্যার শিয়রে এক সোনার কাঠি! রাজপুত্র আস্তে আস্তে সোনার কাঠি তুলিয়া লইলেন।সোনার কাঠি তুলিয়া লইতেই দেখিলেন, আর এক দিকে এক রূপার কাঠি। রাজপুত্র আশ্চর্য হইয়া রূপার কাঠিও তুলিয়া লইলেন্ দুই কাঠি হাতে লইয়া রাজপুত্র নাড়িয়া চাড়িয়া দেখিতে লাগিলেন।দেখিতে দেখিতে, সোনার কাঠিটি কখন টুক করিয়া ঘুমন্ত রাজকন্যার মাথায় ছুঁইয়া গেল! অমনি পদ্মের বন শিউরে উঠিল, সোনার খাট নড়িয়া উঠিল; সোনার পাঁপ্ড়ি ঝরিয়া পড়িল, রাজকন্যার হাত হইল; পা হইল; গায়ের আলস ভাঙ্গিয়া, চোখের পাতা কচ্লাইয়া ঘুমন্ত রাজকন্যা চমকিয়া উঠিয়া বসিলেন।আর অমনি রাজপুরীর চারিদিকে পাখি ডাকিয়া উঠিল, দুয়ারে দুয়ারী আসিয়া হাঁক ছাড়িল, উঠাতে হাতী ঘোড়া ডাক ছাড়িল, সিপাই তলোয়ার ঝন ঝন করিয়া উঠিল; রাজদরবারে রাজা জাগিলেন, মন্ত্রী জাগিলেন, পাত্র জাগিলেন, পাত্র জাগিলেন-হাজার বচ্ছরের ঘুম হইতে, সে যেখানে ছিলেন, জাগিয়া উঠিলেন-লোক লস্কর, সিপাই পাহারা, সৈন্য সামন্ত তীর তলোয়ার লইয়া খাড়া হইল।-সকলে অবাক হইয়া গেলেন-রাজপুরীতে কে আসিল।রাজপুত্র। অবাক হইয়া গেলেন,রাজকন্যা অবাক হইয়া চাহিয়া রহিলেন।রাজা, মন্ত্রী জন-পরিজন সকলে আসিয়া দেখিলেন-রাজপুত্র রাজকন্যা মাথা নামাইলেন। রাজপুরীর চারদিকে ঢাক-ঢোল, শানাই-নাকাড়া বাজিয়া উঠিল!রাজা বলিলেন,-তুমি কোন দেশের ভাগ্যবান রাজার রাজপুত্র, আমাদিগে মরণ-ঘুমের হাত হইতে রহ্মা করিয়াছে!জন-পরিজনেরা বলিল,-আহা। আপনি কোন্ দেবতা-রাজার দেব রাজপুত্র-এক দৈত্য রূপার কাঠি ছোয়াইয়া আমাদের গম্গমা সোনার রাজ্যে ঘুম পাড়াইয়া রাখিয়াছিল,-আপনি আসিয়া আমাদিগে জাগ্রত করিলেন।রাজপুত্র মাথা নোয়াইয়া চুপ করিয়া রহিলেন।রাজা বলিলেন,-আমার কি আছে, কি দিব? এই রাজকন্যা তোমার হাতে দিলাম, এই রাজত্ব তোমাকে দিলাম।চারিদিকে ফুল-বৃষ্টি, চারিদিকে চন্দন-বৃষ্টি; ফুল ফোটে, খৈ ছোটে,-রাজপুরীর হাজার ঢালে ডুম-ডুম কাটী পড়িল।তখন, শতে শতে বাঁদী দাসী বাট্না বাটে, হাজারে হাজের দাই দাসী কুট্না কোটে;দুয়ারে দুয়ারে মঙ্গল ঘড়াপাঁচ পল্লব ফুলের তোড়া;আল্পনা বিলিপনা, এয়োর ঝাঁক,পাঠ-পিঁড়ি আসনে ঘিরে, বেজে ওঠে শাঁখ।সে কি শোভা!-রাজপুরীর চার-চত্বর দল্দল্ ঝল্মল্। আঙ্গিনায় আঙ্গিনায় হুলুধ্বনি, রাজভান্ডারে ছড়াছড়ি; জনজনতার হুড়াহুড়ি,-এতদিনের ঘুমন্ত রাজপুরী দাপে কাঁধে, আনন্দে তোল্পাড়।তাহার পর, ফুটফুটে চাঁদের আলোয় আগুন-পুরুতে সম্মুখে, গুয়াপান, রাজ-রাজত্ব যৌতুক দিয়া, রাজা পঞ্চরত্ন মুকুট পরাইয়া রাজপুত্রের সঙ্গে রাজকন্যার বিবাহ দিলেন। চারিদিকে জয়ধ্বনি উঠিল। এক বছর, দুবছর, বছরের পর বছর কত বছর গেল,-দেশভ্রমণে গিয়েছেন, রাজপুত্র আজও ফিরেন না। কাঁদিয়া কাঁদিয়া, মাথা খুঁড়িয়া রাণী বিছানা নিয়াছেন। ভাবিয়া ভাবিয়া চোখের জল ফেলিতে ফেলিতে রাজা অন্ধ হইয়াছেন। রাজ্য অন্ধকার, রাজ্যে হাহাকার।একদিন ভোর হইতে-না-হইতে রাজদুয়ারে ঢাক-ঢোল বাজিয়া উঠিল, হাতী ঘোড়া সিপাই সান্ত্রীর হাঁকে দুয়ার কাঁপিয়া উঠিল।রাণী বলিলেন,-কি, কি?রাজা বলিলেন,-কে, কে?রাজ্যের প্রজারা ছুটিয়া আসিল। রাজপুত্র- রাজকন্যা বিবাহ করিয়া লইয়া ফিরিয়া আসিয়াছেন!!কাঁপিতে কাঁপিতে রাজা আসিয়া রাজপুত্রকে বুকে লইলেন। পড়িতে-পড়িতে রাণী আসিয়া রাজকন্যাকে বরণ করিয়া নিলেন।প্রজারা আনন্দধ্বনি করিয়া উঠিল।রাজপুত্র রাজার চোখে সোনার কাঠি ছোঁয়াইলেন, রাজার চোখ ভালো হইল। ছেলেকে পাইয়া, ছেলের বউ দেখিয়া রাণীর অসুখ সারিয়া গেল।তখন, রাজপুত্র লইয়া ঘুমন্ত পুরীর রাজকন্যা লইয়া, রাজা-রাণী সুখে রাজত্ব করিতে লাগিলেন। "
    },
    {
        "title": "রাজকন্যা কংকাবতী ও রাজপুত্র ডালিমকুমার এর গল্প",
        "details": "রাজকন্যা কংকাবতী ও রাজপুত্র ডালিমকুমার এর গল্প একদেশে ছিল এক রাজপুত্র। তার নাম ডালিমকুমার। সে হাসতো, খেলতো, ঘুরে বেড়াতো। তার মনে ছিল আনন্দ আর আনন্দ।একদিন তার শখ হল দেশ ভ্রমণে যাবার। যেই না ভাবনা, ডালিমকুমার তার পঙ্খীরাজ হোন্ডা নিয়ে বেড়িয়ে পড়ল অজানারউদ্দেশ্যে। যেতে যেতে যেতে একদিন পৌঁছাল এক বিশাল প্রাসাদের সামনে। প্রাসাদের চূড়া যেন আকাশ ছুঁয়েছে, সামনে একবিশাল ফুলের বাগান, এক পাশে চায়ের টেবিল-চেয়ার, একপাশে ছোট্ট একটা ঝর্ণা। আর সামনে বিশাল একটা গেট। গেটের ওপরলতা-পাতায় ছাওয়া। প্রাসাদটা এত সুন্দর, কিন্তু কেমন নিষ্প্রাণ। আধো আধো অন্ধকার, যেন সূর্যের আলো পৌঁছায় না ভিতরে,ফুলের বাগানটা হয়ে আছে জংলা, একটা-দুটো জংলী ফুল টিকে আছে কোনরকমে। কোন পাখি নাই, প্রজাপতি নাই।ডালিমকুমার অবাক হয়ে ভয়ে জবুথবু, ঘুম ঘুম, নিষ্প্রাণ প্রাসাদটা দেখতে লাগল। এমন সময়.এমন সময় দোতলার দক্ষিণ দিকের একটা বারান্দার দরজা খুলে গেল। বেরিয়ে এল এক ঝলক নরম আলো। চোখ কচলে ভালকরে তাকাতেই ডালিমকুমার দেখল আলো নয়, এক রাজকুমারী দাঁড়িয়ে আছে। যেমন চাঁপার মত গায়ের রঙ, তেমনি মেঘেরমত লম্বা চুল, তেমনি চোখ, তেমনি নাক, তেমনি মুখ.এত সুন্দর! এত সুন্দর!! এত সুন্দর রাজপুত্র কোনদিন দেখেনি। কিন্তুরাজকুমারীর মুখে কি যে বিষাদ। এত সুন্দর একটা মানুষের এত কেন মন খারাপ? ডালিমকুমার অবাক হয়ে তাকিয়েই রইল,তাকেয়েই রইল, তাকিয়েই রইল। রাজকুমারী এসে দাঁড়াতেই চারদিকে যেন প্রাণের সাড়া জেগে উঠল। নেতিয়ে পড়া ফুলগুলোউঠল হেসে, কোত্থেকে উড়ে এল সাদা, নীল, হলুদ সব প্রজাপতি, বারান্দায় বসে গাইতে লাগল একটা হলদে লেজ ঝোলা পাখি।কিন্তু অল্প কিছুক্ষণ। তারপরেই হঠাৎ রাজকুমারী চমকে উঠে ভিতরে চলে গেল আর মন খারাপ করে চলে গেল পাখি, প্রজাপতিসব।রাজপুত্র ফিরে এল। কিন্তু ঘুমাতে পারল না সারারাত। সারাক্ষণ তার চোখে ভাসল সুন্দর মুখটা। সে আবার পরদিন এল, তারপরদিন, তার পরদিন, তার পরদিন, রোজ।রাজপুত্রের অবস্থা দেখে মায়া হল প্রাসাদের সামনে বসা এক পান দোকানদারের। সে রাজপুত্রকে ডেকে বলল রাজকুমারীর গল্প।রাজকুমারীর নাম কঙ্কাবতী। এই প্রাসাদটা কঙ্কাবতীর বাবার। কঙ্কাবতীর বাবা মারা যেতেই তার এক দু:সম্পর্কের চাচাদেখাশোনার নাম করে দখল করে নিয়েছে এই প্রাসাদ। আর বন্দী করেছে কঙ্কাবতীকে। শুধু তাই না, এখন এক বুড়ো হাবড়াদৈত্যের মতন ব্যবসায়ীর কাছে জোর করে বিয়েও দিতে চাইছে। কিন্তু কঙ্কাবতী মোটে রাজি না বিয়েতে। তাই শয়তান চাচা কতইনা অত্যাচার করে নিরীহ রাজকুমারীর ওপরে। আর কঙ্কাবতী কেবল কাঁদে আর কাঁদে।এই কাহিনী শুনে ডালিমকুমার কঙ্কাবতীকে বাঁচানোর জন্য অস্থির হয়ে উঠল। কিন্তু কি করে?সমাধান সেই দয়ালু পানওয়ালাই দিল। কঙ্কাবতীর ছিল একটা ব্যঙ্গমী। আর ডালিমকুমারের ব্যঙ্গমা। ডালিমকুমার ব্যঙ্গমা দিয়েকঙ্কাবতীকে বার্তা পাঠাল। জানাল নিজের পরিচয়, জানাল ভালবাসার কথা, জানাল সে কঙ্কাবতীকে উদ্ধার করতে চায় এইবন্দীশালা থেকে। এদিকে হয়েছে কি, প্রাসাদের বারান্দা থেকে রোজ রোজ দেখতে দেখেতে কঙ্কাবতীও কখন নিজের অজান্তেভালবেসে ফেলেছে ডালিমকুমারকে। তাই বার্তা পেতেই আর দেরি না করে ফিরতি বার্তায় নিজের ভালবাসার কথা জানালকঙ্কাবতী। আর বলল সে এক্ষুণি রাজপুত্রের হাত ধরে চলে আসতে রাজি। কিন্তু কঙ্কাবতীর চাচারতো অনেক ক্ষমতা। সেকিছুতেই আসতে দিবে না।ডালিমকুমার তখন নিজের বন্ধুদের ডেকে আনল। গোপনে খবর নিল শয়তান চাচার কাজ-কর্মের। জানতে পারল লোকটা মহামহা পাজি। যত অন্যায় আর অবৈধ কাজ, চোরাকারবারসবকিছু করে। কিন্তু ডালিমকুমার যে কঙ্কাবতীকে উদ্ধারের চেষ্টাকরছে সেটা চাচা টের পেয়ে গেল। সে তার গুন্ডা-পান্ডা দিয়ে ডালিমকুমারকে ধরে আনার পরিকল্পনা করল। কিন্তু কঙ্কাবতী চুপচুপ করে সেটা শুনে ফেলল। আর তক্ষুণি ব্যঙ্গমী দিয়ে একটা বার্তা পাঠিয়ে দিল ডালিমকুমারকে। বার্তা পেতেই ডালিমকুমারশয়তান চাচার যত জারি-জুরি ওই দেশের মহারাজার কাছে ফাঁস করে দিল।মহারাজা তখন তার সৈন্য বাহিনী পাঠাল। তারা সব কাল কাল পোশাক পরা, কী ভীষণ তাদের মূর্তি। সৈন্যরা এসে চাচা আর তারসাঙ্গ-পাঙ্গকে গ্রেফতার করে নিয়ে গেল। মুক্তি পেল কঙ্কাবতী।মুক্ত হল তার রাজপ্রাসাদ।তারপর মহা ধুমধাম করে রাজপুত্র ডালিমকুমারের সাথে রাজকুমারী কঙ্কাবতীর বিয়ে হয়ে গেল। আর তারা সুখে-শান্তিতে বাসকরতে লাগল।"
    }
]