{
    "latestVersion": "22.0.0",
    "url": "https://data.temp-files.xyz/apk/aostv-v22.0.0.apk",
    "releaseNotes": [
        "- Playlist manager issue solve",
        "- Remote support ui",
        "- Performance & issue solve"
    ]
}
